<?xml version="1.0" encoding="utf-8"?>
<!-- Generator: Adobe Illustrator 24.0.1, SVG Export Plug-In . SVG Version: 6.00 Build 0)  -->
<svg version="1.1" id="Layer_1" xmlns="http://www.w3.org/2000/svg" xmlns:xlink="http://www.w3.org/1999/xlink" x="0px" y="0px"
	 viewBox="0 0 369.4 185.8" style="enable-background:new 0 0 369.4 185.8;" xml:space="preserve">
<style type="text/css">
	.st0{fill:#203A70;}
	.st1{fill:#FDDC50;}
	.st2{fill:url(#SVGID_1_);}
</style>
<g>
	<g>
		<g>
			<path class="st0" d="M150.1,74.6c1.9-2,3.4-4.3,4.4-7c1.1-2.7,1.6-5.6,1.6-8.7s-0.5-6-1.6-8.7c-1.1-2.7-2.6-5-4.5-7
				c-1.9-2-4.2-3.5-6.9-4.7c-2.6-1.1-5.6-1.7-8.8-1.7s-6.1,0.6-8.7,1.7c-2.6,1.1-4.9,2.7-6.8,4.7c-1.9,2-3.4,4.3-4.5,7
				c-1.1,2.7-1.6,5.6-1.6,8.7c0,3.1,0.5,6,1.6,8.7c1.1,2.7,2.6,5.1,4.4,7c1.9,2,4.2,3.6,6.8,4.7c2.6,1.1,5.6,1.7,8.7,1.7
				c3.2,0,6.1-0.6,8.8-1.7C145.9,78.2,148.2,76.6,150.1,74.6z M139.5,71.7c-1.5,0.7-3.1,1-4.9,1c-1.8,0-3.5-0.3-5-1
				c-1.5-0.7-2.8-1.6-3.8-2.8c-1.1-1.2-1.9-2.7-2.5-4.3c-0.6-1.7-0.9-3.6-0.9-5.6s0.3-3.9,0.9-5.6c0.6-1.7,1.4-3.1,2.5-4.3
				c1-1.2,2.3-2.1,3.8-2.8s3.1-1,5-1s3.5,0.3,4.9,1c1.5,0.7,2.7,1.6,3.8,2.8c1.1,1.2,1.9,2.7,2.5,4.3c0.6,1.7,0.9,3.6,0.9,5.6
				s-0.3,3.9-0.9,5.6c-0.6,1.7-1.4,3.1-2.5,4.3C142.2,70.1,141,71,139.5,71.7z M174.6,63.3h15l0.4-0.8c0.2-0.3,0.3-0.7,0.6-1.3
				c0.3-0.7,0.4-1.4,0.4-2.3c0-2.7-1.6-4.2-4.4-4.2h-12v-8.5h16.7l0.4-0.8c0.2-0.3,0.3-0.7,0.6-1.3c0.3-0.7,0.4-1.4,0.4-2.3
				c0-2.7-1.7-4.2-4.5-4.2h-17.8c-1.6,0-2.9,0.5-3.8,1.3s-1.3,2.1-1.3,3.6V80h9.2L174.6,63.3L174.6,63.3z M230.6,71.6H211v-8.8h17.7
				l0.4-0.8c0.2-0.3,0.3-0.7,0.6-1.3c0.3-0.7,0.4-1.4,0.4-2.3c0-2.7-1.6-4.2-4.4-4.2H211v-8h18.5l0.4-0.8c0.2-0.3,0.3-0.7,0.6-1.3
				c0.3-0.7,0.4-1.4,0.4-2.3c0-2.7-1.6-4.2-4.4-4.2h-19.6c-1.6,0-2.9,0.5-3.8,1.3s-1.3,2.1-1.3,3.6V80h28.9L230.6,71.6L230.6,71.6z
				 M268.2,65.3c1.1-2.5,2.1-5.1,3.2-7.7c1-2.5,2-4.9,2.9-7.1c0.9-2.2,1.7-4.2,2.3-5.9l2-5.2l-1.4-0.6c0,0-0.3-0.1-1-0.5
				c-0.8-0.4-1.8-0.6-2.9-0.6c-1.6,0-2.8,0.4-3.6,1.1c-0.8,0.7-1.4,1.7-2,3.2c-0.5,1.4-1.1,3.1-1.8,4.9l-2.1,5.6
				c-0.7,2-1.5,3.9-2.2,5.9c-0.8,2-1.5,3.9-2.2,5.6c-0.7,1.8-1.3,3.4-1.9,4.8c0,0,0,0.1-0.1,0.1c-0.6-1.4-1.2-3-1.9-4.6
				c-1.2-2.9-2.4-5.9-3.5-8.9c-1.1-3-2.2-5.9-3.3-8.7c-1-2.8-1.9-5.2-2.6-7.2c-0.2-0.8-0.9-1.1-1.6-1.4c-0.7-0.3-1.6-0.4-2.6-0.4
				c-1.6,0-2.8,0.5-3.6,1.5c-0.7,0.9-1,1.8-1,2.9c0,0.5,0.1,1.1,0.2,1.6c0.1,0.5,0.3,1.2,0.6,2.1c0.2,0.4,0.3,0.9,0.5,1.4
				c0.2,0.5,0.4,1,0.6,1.6c0.6,1.5,1.3,3.5,2.3,5.8c0.9,2.3,2,4.9,3.1,7.6c1.1,2.7,2.4,5.6,3.7,8.5c1.3,2.9,2.7,5.7,4,8.3l0.4,0.8
				h9.1l0.4-0.9c0.9-1.9,1.8-4,2.9-6.4C266.1,70.4,267.1,67.9,268.2,65.3z"/>
			<path class="st0" d="M96.6,38.8l-12.1,38c-1.9,5.8-5.5,6-8,0.5L43.3,4.8c-2.2-4.8,0.5-6.2,4.2-3.4L96.6,38.8z"/>
			<path class="st1" d="M96.6,38.8L84.5,16c-2-4.2-4.4-3.2-4.8,1l-0.9,8.2L96.6,38.8z"/>
			
				<linearGradient id="SVGID_1_" gradientUnits="userSpaceOnUse" x1="16.6075" y1="199.665" x2="96.6806" y2="112.3512" gradientTransform="matrix(1 0 0 -1 0 188)">
				<stop  offset="0.1" style="stop-color:#FDDC50"/>
				<stop  offset="0.9" style="stop-color:#F26724"/>
			</linearGradient>
			<path class="st2" d="M59,71l37.6-32.3L30,38.9L59,71z M4.8,3.5c-4.9-1.9-6.5,0.3-2.9,4.2l20.3,22.7l61.5,3.9L4.8,3.5z M64.3,76.9
				l11.2,12.4c2,2.2,4.4,1.7,5.3-1.2l15.8-49.4L64.3,76.9z"/>
			<path class="st0" d="M282.4,42L282.4,42c0-2.4,2-4.5,4.4-4.5c2.5,0,4.4,2,4.4,4.4v0c0,2.4-2,4.4-4.4,4.4S282.4,44.4,282.4,42z
				 M290.8,42L290.8,42c0-2.2-1.7-4-4-4c-2.3,0-4,1.8-4,4v0c0,2.2,1.7,4,4,4C289.1,46,290.8,44.2,290.8,42z M285,39.5h2.1
				c0.6,0,1.1,0.2,1.4,0.5c0.2,0.2,0.4,0.6,0.4,1v0c0,0.8-0.4,1.2-1.1,1.4l1.2,1.8h-1l-1.1-1.6h0h-0.9v1.6h-0.9L285,39.5L285,39.5z
				 M287.1,41.8c0.6,0,0.9-0.3,0.9-0.7v0c0-0.5-0.3-0.7-0.9-0.7h-1.1v1.5H287.1z"/>
			<g>
				<path class="st0" d="M126.2,97.9h4.6v2.5c0.8-1.6,1.9-2.9,3.7-2.9c2.7,0,4,2.3,4,5.5v15.9h-4.6V104c0-1.5-0.6-2.4-1.5-2.4
					s-1.6,0.9-1.6,2.4v14.9h-4.6C126.2,118.9,126.2,97.9,126.2,97.9z"/>
				<path class="st0" d="M141.4,91.2h4.7v4.6h-4.7V91.2z M141.5,97.9h4.6v21h-4.6V97.9z"/>
				<path class="st0" d="M149.1,97.9h4.6v2.5c0.8-1.6,1.9-2.9,3.7-2.9c2.7,0,4,2.3,4,5.5v15.9h-4.6V104c0-1.5-0.6-2.4-1.5-2.4
					s-1.6,0.9-1.6,2.4v14.9h-4.6L149.1,97.9L149.1,97.9z"/>
				<path class="st0" d="M164.8,115.3v-13.7h-1.3v-3.8h1.3v-5.4h4.6v5.4h2.5v3.8h-2.5v12.1c0,0.9,0.5,1.3,1.3,1.3
					c0.4,0,0.8-0.1,1.1-0.2v3.7c-0.7,0.4-1.8,0.7-2.8,0.7C166.9,119.2,164.8,118.5,164.8,115.3z"/>
				<path class="st0" d="M173.3,108.9v-1c0-6.8,2.9-10.4,6.4-10.4c3.6,0,6,3.7,6,10.6v2.4h-7.7c0.3,3.3,1.6,4.4,3.2,4.4
					c1.4,0,2.3-0.6,3.7-1.5l0.4,4.2c-1.6,1.1-2.9,1.6-4.6,1.6C176.6,119.3,173.3,115.7,173.3,108.9z M181.3,106.9
					c0-3.5-0.5-5.2-1.6-5.2c-1.1,0-1.7,1.5-1.8,5.2H181.3z"/>
				<path class="st0" d="M187.6,109.3v-1.9c0-7.5,2-10,4.5-10c2,0,3,1.7,3.7,2.9v-9.2h4.6v27.7h-4.6v-2.6c-0.7,1.3-1.6,3-3.7,3
					C189.6,119.3,187.6,116.9,187.6,109.3z M195.8,109.1v-1.4c0-3.7-0.7-5.8-1.8-5.8c-1.2,0-1.7,2-1.7,5.8v1.4
					c0,3.8,0.6,5.8,1.7,5.8C195.1,114.9,195.8,112.9,195.8,109.1z"/>
				<path class="st0" d="M202.6,113.1v-0.7c0-4.7,1.9-6.7,4.7-6.7c1,0,1.9,0.3,2.8,0.8v-1.3c0-2.2-1-3.3-2.9-3.3
					c-1.2,0-2.5,0.5-3.5,1v-4.4c1.4-0.6,3-0.9,4.2-0.9c2.3,0,3.8,0.6,4.9,1.7c1.3,1.3,1.9,3.1,1.9,5.6v14h-4.6v-2.2
					c-0.8,1.7-2,2.6-3.5,2.6C204.3,119.3,202.6,116.9,202.6,113.1z M210.1,113.4v-3.6c-0.4-0.2-1.1-0.4-1.4-0.4
					c-0.9,0-1.6,0.8-1.6,2.8v0.6c0,2.1,0.6,2.7,1.4,2.7C209.3,115.4,210.1,114.7,210.1,113.4z"/>
				<path class="st0" d="M217.5,97.9h4.6v2.5c0.8-1.6,1.9-2.9,3.7-2.9c2.7,0,4,2.3,4,5.5v15.9h-4.6V104c0-1.5-0.6-2.4-1.5-2.4
					s-1.6,0.9-1.6,2.4v14.9h-4.6L217.5,97.9L217.5,97.9z"/>
				<path class="st0" d="M232.8,91.2h4.7v4.6h-4.7V91.2z M232.8,97.9h4.6v21h-4.6V97.9z"/>
				<path class="st0" d="M245.1,116.4v2.6h-4.6V91.2h4.6v9.3c0.7-1.3,1.6-3,3.7-3c2.5,0,4.5,2.4,4.5,10v1.9c0,7.5-2,10-4.5,10
					C246.8,119.3,245.8,117.6,245.1,116.4z M248.7,109.1v-1.4c0-3.8-0.6-5.8-1.7-5.8s-1.9,2-1.9,5.8v1.4c0,3.7,0.7,5.8,1.9,5.8
					C248.1,114.9,248.7,112.8,248.7,109.1z"/>
				<path class="st0" d="M116.6,145.3v-0.6c0-7,3-10.4,6.4-10.4c1.1,0,1.9,0.2,2.6,0.7v2.6c-0.8-0.6-1.5-0.9-2.5-0.9
					c-1.9,0-4,2.4-4,7.9v0.8c0,5.6,2,7.9,4.2,7.9c0.8,0,1.6-0.4,2.3-0.9v2.5c-0.8,0.5-1.5,0.8-2.6,0.8
					C119.5,155.6,116.6,152.4,116.6,145.3z"/>
				<path class="st0" d="M127.5,149.3v-0.4c0-4.1,2-6.6,5.2-6.6c1.3,0,2.4,0.4,3.3,0.8v-2.2c0-2.7-1.3-4.2-3.7-4.2
					c-1.4,0-2.6,0.3-3.7,0.9v-2.4c1.2-0.6,2.6-0.9,4-0.9c1.8,0,3.2,0.5,4.2,1.5c1,1,1.6,2.6,1.6,4.8v14.7H136v-2.8
					c-0.8,2-2.1,3.1-4,3.1C129.3,155.6,127.5,153,127.5,149.3z M136,149.1v-4c-0.9-0.4-1.9-0.8-2.9-0.8c-2.1,0-3.3,1.8-3.3,4.4v0.4
					c0,2.6,1,4.4,2.8,4.4C134.7,153.5,136,151.4,136,149.1z"/>
				<path class="st0" d="M142,134.6h2.4v3.6c0.8-2.1,2.1-4,4.2-4c2.8,0,5.1,3.3,5.1,10.2v1c0,6.8-2.4,10.2-5.1,10.2
					c-2.1,0-3.4-1.9-4.2-3.9v8.7H142V134.6z M151.3,145.4v-0.9c0-5.1-1.4-8-3.3-8c-1.9,0-3.6,2.8-3.6,7.9v1.1c0,5.1,1.7,7.9,3.6,7.9
					C149.8,153.4,151.3,150.5,151.3,145.4z"/>
				<path class="st0" d="M155.9,154.6v-2.5c1.4,0.8,2.9,1.2,4.1,1.2c1.6,0,2.8-1,2.8-2.7v0c0-1.3-0.7-2.6-3-4.8
					c-2.8-2.7-3.9-4.4-3.9-6.6v-0.1c0-3.1,2.3-4.9,5-4.9c1.3,0,2.3,0.2,3.4,0.7v2.5c-1.1-0.6-2.2-0.9-3.4-0.9
					c-1.5,0-2.6,0.9-2.6,2.5v0c0,1.3,0.7,2.3,3.1,4.6c2.8,2.8,3.9,4.5,3.9,6.7v0.1c0,3.1-2.4,5-5.1,5
					C158.5,155.6,157.2,155.2,155.9,154.6z"/>
				<path class="st0" d="M167.7,149.4v-14.8h2.4V149c0,2.9,1.1,4.5,2.9,4.5s3.3-1.9,3.3-4.7v-14.2h2.4v20.7h-2.4v-2.9
					c-0.8,1.7-2,3.2-4.1,3.2C169.4,155.6,167.7,153.3,167.7,149.4z"/>
				<path class="st0" d="M182.7,127.6h2.5v27.7h-2.5V127.6z"/>
				<path class="st0" d="M188.3,145.4v-0.6c0-7,2.7-10.6,5.9-10.6c3.2,0,5.5,3.6,5.5,10.2v1.6h-8.9c0.2,4.9,2.2,7.3,4.6,7.3
					c1.3,0,2.2-0.4,3.6-1.3l0.2,2.4c-1.5,0.9-2.6,1.3-4.2,1.3C191.5,155.6,188.3,152.1,188.3,145.4z M197.4,144
					c0-4.4-1.3-7.5-3.2-7.5c-1.9,0-3.3,2.5-3.4,7.5H197.4z"/>
				<path class="st0" d="M201.8,154.6v-2.5c1.4,0.8,2.9,1.2,4.1,1.2c1.6,0,2.8-1,2.8-2.7v0c0-1.3-0.7-2.6-3-4.8
					c-2.8-2.7-3.9-4.4-3.9-6.6v-0.1c0-3.1,2.3-4.9,5-4.9c1.3,0,2.3,0.2,3.4,0.7v2.5c-1.1-0.6-2.2-0.9-3.4-0.9
					c-1.5,0-2.6,0.9-2.6,2.5v0c0,1.3,0.7,2.3,3.1,4.6c2.8,2.8,3.9,4.5,3.9,6.7v0.1c0,3.1-2.4,5-5.1,5
					C204.4,155.6,203.1,155.2,201.8,154.6z"/>
				<path class="st0" d="M220.4,130.7l-2.9,1.5v-2.8l3.3-1.7h2v27.5h-2.5V130.7z"/>
				<path class="st0" d="M226.7,154.9v-2.5c0.8,0.4,1.9,0.8,3.3,0.8c2.6,0,4.6-2.6,4.6-6.6v-0.2c0-4.1-1.8-5.5-3.9-5.5
					c-1.1,0-1.7,0.2-2.4,0.5l-1.5-1l0.6-12.6h8.7v2.5h-6.7l-0.4,8.7c0.6-0.2,1.3-0.4,2.2-0.4c3.1,0,5.9,2.2,5.9,7.9v0.2
					c0,5.4-2.9,9-6.9,9C228.5,155.6,227.5,155.3,226.7,154.9z"/>
				<path class="st0" d="M239.6,142v-0.9c0-9.7,2.4-13.7,6.1-13.7c3.6,0,6.1,4,6.1,13.6v0.9c0,9.7-2.4,13.7-6.1,13.7
					C241.9,155.6,239.6,151.7,239.6,142z M249.1,142v-0.8c0-8.1-1.4-11.4-3.5-11.4s-3.5,3.2-3.5,11.3v0.8c0,8.1,1.4,11.3,3.5,11.3
					C247.7,153.3,249.1,150.1,249.1,142z"/>
				<path class="st0" d="M254.9,134.6h2.4v2.9c0.8-1.7,2-3.2,4-3.2c2.1,0,3.3,1.4,3.9,3.2c0.8-1.5,2-3.2,4.4-3.2
					c2.6,0,4.6,2.2,4.6,6.2v14.8h-2.4v-14.5c0-2.9-1.1-4.4-2.8-4.4c-1.8,0-3.2,1.9-3.2,4.7v14.2h-2.4v-14.5c0-2.9-1.1-4.4-2.8-4.4
					c-1.8,0-3.2,1.9-3.2,4.7v14.2h-2.4L254.9,134.6L254.9,134.6z"/>
				<path class="st0" d="M278.1,159.7v-2.4c1.4,0.6,3.2,0.9,4.4,0.9c2.6,0,4-1.2,4-3.9v-4.1c-0.8,2-2.1,3.9-4.2,3.9
					c-2.7,0-5.1-3.2-5.1-9.8V144c0-6.6,2.4-9.8,5.1-9.8c2.1,0,3.4,1.9,4.2,3.9v-3.6h2.5v19.8c0,2-0.5,3.5-1.6,4.5
					c-1.1,1.1-2.7,1.6-4.8,1.6C281,160.5,279.5,160.2,278.1,159.7z M286.6,144.3v-0.3c0-4.9-1.8-7.6-3.6-7.6c-1.8,0-3.3,2.7-3.3,7.6
					v0.2c0,4.9,1.5,7.6,3.3,7.6C284.8,151.9,286.6,149.2,286.6,144.3z"/>
			</g>
		</g>
		<g>
			<path class="st0" d="M115.7,107.5c0-7.9,2.5-14.8,9-16.7v3.4c-3.4,1.8-4.6,6.9-4.6,13.2c0,6.4,1.2,11.5,4.6,13.3v3.4
				C118.2,122.3,115.7,115.5,115.7,107.5z"/>
			<path class="st0" d="M253.3,120.7c3.4-1.8,4.6-6.9,4.6-13.3c0-6.3-1.2-11.5-4.6-13.2v-3.4c6.5,1.9,9,8.7,9,16.7
				c0,8-2.5,14.8-9,16.7V120.7z"/>
		</g>
	</g>
</g>
</svg>
