<?xml version="1.0" encoding="utf-8"?>
<!-- Generator: Adobe Illustrator 23.0.2, SVG Export Plug-In . SVG Version: 6.00 Build 0)  -->
<svg version="1.1" id="Layer_1" xmlns="http://www.w3.org/2000/svg" xmlns:xlink="http://www.w3.org/1999/xlink" x="0px" y="0px"
	 viewBox="0 0 26.93 29.5" style="enable-background:new 0 0 26.93 29.5;" xml:space="preserve">
<style type="text/css">
	.st0{fill-rule:evenodd;clip-rule:evenodd;fill:#24356F;}
</style>
<g>
	<path class="st0" d="M0,0v29.5l26.93-0.04V0H0z M19.24,17.96H7.7H3.85l9.12-8.55l0.9-0.03l9.22,8.58H19.24z"/>
</g>
</svg>
