<?xml version="1.0" encoding="utf-8"?>
<!-- Generator: Adobe Illustrator 23.0.2, SVG Export Plug-In . SVG Version: 6.00 Build 0)  -->
<svg version="1.1" id="Layer_1" xmlns="http://www.w3.org/2000/svg" xmlns:xlink="http://www.w3.org/1999/xlink" x="0px" y="0px"
	 viewBox="0 0 27 29.57" style="enable-background:new 0 0 27 29.57;" xml:space="preserve">
<style type="text/css">
	.st0{fill-rule:evenodd;clip-rule:evenodd;fill:#2BACE2;}
</style>
<g>
	<g>
		<path class="st0" d="M0,0v29.57l27-0.04V0H0z M20.57,16.71h-5.14v5.14h-3.86v-5.14H6.43v-3.85h5.14V7.72h3.86v5.14h5.14V16.71z"/>
	</g>
	<g>
		<path class="st0" d="M0,0v29.57l27-0.04V0H0z M20.57,16.71h-5.14v5.14h-3.86v-5.14H6.43v-3.85h5.14V7.72h3.86v5.14h5.14V16.71z"/>
	</g>
</g>
</svg>
