<?xml version="1.0" encoding="utf-8"?>
<!-- Generator: Adobe Illustrator 23.0.2, SVG Export Plug-In . SVG Version: 6.00 Build 0)  -->
<svg version="1.1" id="Layer_1" xmlns="http://www.w3.org/2000/svg" xmlns:xlink="http://www.w3.org/1999/xlink" x="0px" y="0px"
	 viewBox="0 0 48.25 25.9" style="enable-background:new 0 0 48.25 25.9;" xml:space="preserve">
<style type="text/css">
	.st0{fill:#F06722;}
</style>
<g>
	<polygon class="st0" points="24.12,25.9 0,1.78 1.78,0 24.12,22.35 46.47,0 48.25,1.78 	"/>
</g>
</svg>
