<?xml version="1.0" encoding="utf-8"?>
<!-- Generator: Adobe Illustrator 23.0.2, SVG Export Plug-In . SVG Version: 6.00 Build 0)  -->
<svg version="1.1" id="Layer_1" xmlns="http://www.w3.org/2000/svg" xmlns:xlink="http://www.w3.org/1999/xlink" x="0px" y="0px"
	 viewBox="0 0 48.25 48.25" style="enable-background:new 0 0 48.25 48.25;" xml:space="preserve">
<style type="text/css">
	.st0{fill:#f58672;}
</style>
<g>
	<g>
		
			<rect x="22.87" y="-8.74" transform="matrix(0.7071 -0.7071 0.7071 0.7071 -9.9923 24.1239)" class="st0" width="2.51" height="65.72"/>
	</g>
	<g>
		
			<rect x="-8.74" y="22.87" transform="matrix(0.7069 -0.7073 0.7073 0.7069 -9.9923 24.1329)" class="st0" width="65.72" height="2.51"/>
	</g>
</g>
</svg>
