<?xml version="1.0" encoding="utf-8"?>
<!-- Generator: Adobe Illustrator 23.0.2, SVG Export Plug-In . SVG Version: 6.00 Build 0)  -->
<svg version="1.1" id="Layer_1" xmlns="http://www.w3.org/2000/svg" xmlns:xlink="http://www.w3.org/1999/xlink" x="0px" y="0px"
	 viewBox="0 0 39.61 33.49" style="enable-background:new 0 0 39.61 33.49;" xml:space="preserve">
<style type="text/css">
	.st0{fill:#F06722;}
</style>
<g>
	<g>
		<path class="st0" d="M4.07,0L0,3.84l13.7,12.91L0,29.65l4.07,3.84l17.77-16.74L4.07,0z M21.84,0l-4.07,3.84l13.7,12.91
			l-13.7,12.91l4.07,3.84l17.77-16.74L21.84,0z"/>
	</g>
</g>
</svg>
