<?xml version="1.0" encoding="utf-8"?>
<!-- Generator: Adobe Illustrator 23.0.2, SVG Export Plug-In . SVG Version: 6.00 Build 0)  -->
<svg version="1.1" id="Layer_1" xmlns="http://www.w3.org/2000/svg" xmlns:xlink="http://www.w3.org/1999/xlink" x="0px" y="0px"
	 viewBox="0 0 47.42 47.42" style="enable-background:new 0 0 47.42 47.42;" xml:space="preserve">
<style type="text/css">
	.st0{fill:#d1545f;}
</style>
<g>
	<path class="st0" d="M23.71,47.42C10.64,47.42,0,36.78,0,23.71S10.64,0,23.71,0s23.71,10.64,23.71,23.71S36.78,47.42,23.71,47.42z
		 M23.71,2.42c-11.74,0-21.29,9.55-21.29,21.29S11.97,45,23.71,45S45,35.45,45,23.71S35.45,2.42,23.71,2.42z"/>
</g>
<g>
	<g>
		
			<rect x="11.85" y="22.71" transform="matrix(0.7071 -0.7071 0.7071 0.7071 -9.8211 23.7096)" class="st0" width="23.72" height="2"/>
	</g>
	<g>
		<g>
			<polygon class="st0" points="23.72,14.45 23.78,16.05 31.66,15.76 31.37,23.64 32.97,23.7 33.32,14.1 			"/>
		</g>
	</g>
	<g>
		<g>
			<polygon class="st0" points="14.45,23.72 16.05,23.78 15.76,31.66 23.64,31.37 23.7,32.97 14.1,33.32 			"/>
		</g>
	</g>
</g>
</svg>
