<?xml version="1.0" encoding="utf-8"?>
<!-- Generator: Adobe Illustrator 23.0.2, SVG Export Plug-In . SVG Version: 6.00 Build 0)  -->
<svg version="1.1" id="Layer_1" xmlns="http://www.w3.org/2000/svg" xmlns:xlink="http://www.w3.org/1999/xlink" x="0px" y="0px"
	 viewBox="0 0 248.14 77.17" style="enable-background:new 0 0 248.14 77.17;" xml:space="preserve">
<style type="text/css">
	.st0{fill-rule:evenodd;clip-rule:evenodd;fill:#1C3864;}
	.st1{fill:#1C3864;}
</style>
<g>
	<g>
		<g>
			<path class="st0" d="M47.77,16.66L36.6,7.96l-11.16,8.7l2.01,2.56l9.15-7.05l9.15,7.05L47.77,16.66L47.77,16.66z M73.21,36.6
				C73.21,16.38,56.83,0,36.6,0S0,16.38,0,36.6c0,12.81,6.59,23.97,16.47,30.56V45.75h-3.66v14.64c-1.74-2.2-3.66-4.85-5.12-7.41
				c-2.75-4.85-4.3-10.25-4.3-16.38C3.39,18.12,18.3,3.11,36.6,3.11c18.3,0,33.22,15.01,33.22,33.49c0,6.13-1.55,11.53-4.3,16.38
				c-1.46,2.56-3.38,5.22-5.12,7.41V45.75h-3.66v21.41C66.62,60.58,73.21,49.41,73.21,36.6L73.21,36.6z M45.75,72.02V21.96h-3.66
				v50.88C43.38,72.66,44.56,72.29,45.75,72.02L45.75,72.02z M53.08,69.27V45.75h-3.66v25.16C50.7,70.46,51.89,69.91,53.08,69.27
				L53.08,69.27z M38.44,73.11V21.96h-3.66v51.15c0.64,0,1.19,0.09,1.83,0.09C37.24,73.21,37.79,73.11,38.44,73.11L38.44,73.11z
				 M31.11,72.84V21.96h-3.66v50.05C28.64,72.29,29.83,72.66,31.11,72.84L31.11,72.84z M23.79,70.92V45.75h-3.66v23.52
				C21.32,69.91,22.51,70.46,23.79,70.92L23.79,70.92z"/>
		</g>
	</g>
	<path class="st0" d="M105.8,24c0-1.76-0.64-3.48-1.87-4.8c-1.39-1.5-2.96-1.91-4.69-2.21c1.91-0.75,4.95-2.4,4.95-6.41
		c0-1.46-0.49-2.96-1.46-4.05c-1.84-2.06-4.72-2.14-6.14-2.14c-1.69,0-3.37,0.15-5.06,0.15c-1.39,0-2.81-0.08-4.42-0.15v1.46
		l2.4,0.67v22.6l-2.4,0.6v1.46c1.54-0.08,2.88-0.11,4.2-0.11c0.94,0,5.06,0.11,5.88,0.11c2.21,0,5.66-0.08,7.65-3.52
		C105.39,26.7,105.8,25.46,105.8,24L105.8,24z M100.26,11.07c0,5.17-3.15,5.4-4.95,5.4h-2.1V6.65c0.3-0.15,0.6-0.34,1.01-0.45
		c0.41-0.11,0.94-0.22,1.57-0.22C97.3,5.97,100.26,6.42,100.26,11.07L100.26,11.07z M101.72,23.74c0,2.06-0.71,4.12-2.44,5.13
		c-1.12,0.64-2.32,0.75-3.41,0.75c-1.09,0-2.1-0.3-2.66-0.86V18.04h1.84C97.67,18.04,101.72,18.27,101.72,23.74L101.72,23.74z"/>
	<path class="st0" d="M123.26,21.53c0-8.36-5.13-9.56-7.27-9.56c-5.29,0-7.5,5.4-7.5,9.97c0,6,3.22,9.52,7.23,9.52
		C119.62,31.46,123.26,28.08,123.26,21.53L123.26,21.53z M119.51,21.41c0,2.36-0.26,8.51-3.79,8.51c-2.4,0-3.48-3.41-3.48-7.91
		c0-2.29,0.22-8.54,3.75-8.54C119.02,13.47,119.51,18.3,119.51,21.41L119.51,21.41z"/>
	<path class="st0" d="M139.25,26.77l-1.27-0.64c-0.6,1.05-1.72,2.81-3.79,2.81c-1.54,0-2.4-0.68-2.89-1.24
		c-1.69-1.91-1.8-4.61-1.87-6.52h9.74c-0.04-2.58-0.08-5.62-2.1-7.57c-1.09-1.05-2.62-1.65-4.27-1.65c-1.57,0-3.93,0.64-5.43,3.3
		c-1.12,2.02-1.42,4.61-1.42,6.75c0,5.58,2.44,9.37,6.82,9.37C137.15,31.38,138.61,28.35,139.25,26.77L139.25,26.77z M135.65,19.69
		h-6.18c0.19-2.25,0.67-6.11,3.33-6.11C135.39,13.58,135.61,17.4,135.65,19.69L135.65,19.69z"/>
	<path class="st1" d="M158.32,31.27v-1.39l-1.99-0.38V16.92c0-0.94-0.04-2.21-1.01-3.3c-0.71-0.83-1.95-1.39-3.33-1.39
		c-2.17,0-3.75,1.2-5.21,2.4V2.83h-1.2c-1.01,0.75-2.14,0.94-4.27,1.05v1.39l1.99,0.45v23.8l-2.06,0.34v1.42
		c1.35-0.11,2.51-0.19,3.71-0.19c1.16,0,2.36,0.08,3.71,0.19v-1.39l-1.87-0.38V16.54c1.05-0.97,2.21-1.91,3.75-1.91
		c1.16,0,1.84,0.71,2.1,1.57c0.15,0.53,0.19,0.98,0.19,2.44v10.87l-1.87,0.38v1.39c1.31-0.07,2.21-0.19,3.26-0.19
		C155.51,31.08,156.82,31.19,158.32,31.27L158.32,31.27z"/>
	<path class="st0" d="M172.04,14.33c0-1.46-0.9-1.99-2.02-1.99c-1.65,0-2.55,1.24-3.94,3.75v-3.86h-1.24
		c-1.27,0.79-2.59,0.97-4.08,1.12v1.35l2.06,0.41v14.24l-2.1,0.41v1.46c1.5-0.08,2.73-0.15,4.05-0.15c1.27,0,2.47,0.08,4.09,0.15
		v-1.39l-2.66-0.49V18.71c0.23-0.67,0.9-2.51,2.55-3.15l2.02,1.01C171.33,16.28,172.04,15.76,172.04,14.33L172.04,14.33z"/>
	<path class="st0" d="M180.17,7.44c0-1.31-1.05-2.36-2.36-2.36c-1.31,0-2.4,1.05-2.4,2.36c0,1.31,1.09,2.36,2.4,2.36
		C179.12,9.8,180.17,8.75,180.17,7.44L180.17,7.44z M181.52,31.23v-1.42l-2.1-0.37V12.05h-1.12c-1.46,1.01-2.51,1.05-4.23,1.2v1.39
		l1.91,0.37v14.43l-1.99,0.37v1.42c1.42-0.08,2.7-0.15,3.9-0.15C179.05,31.08,180.02,31.16,181.52,31.23L181.52,31.23z"/>
	<path class="st0" d="M200.98,31.16v-1.46l-1.95-0.41V16.95c0-1.16-0.07-2.77-1.54-3.9c-0.83-0.64-1.99-0.9-2.92-0.9
		c-2.1,0-3.75,1.24-5.17,2.44v-2.55h-1.28c-1.35,0.79-2.58,1.01-4.16,1.16v1.35l2.06,0.3v14.43l-2.06,0.34v1.54
		c1.27-0.08,2.44-0.15,3.52-0.15c1.28,0,2.55,0.07,4.01,0.15v-1.54l-1.95-0.34V16.47c1.05-0.97,2.14-1.87,3.67-1.87
		c2.25,0,2.29,2.32,2.29,3.34v11.35l-1.95,0.41v1.46c1.31-0.08,2.47-0.15,3.6-0.15C198.39,31.01,199.48,31.08,200.98,31.16
		L200.98,31.16z"/>
	<path class="st0" d="M218.64,14.56v-1.87h-4.42c-0.56-0.19-1.12-0.34-1.72-0.49c-0.6-0.15-1.27-0.26-2.06-0.26
		c-3.56,0-6.37,2.47-6.37,6.26c0,3.22,1.95,4.61,3.19,5.32c-2.25,1.57-3.6,2.59-3.6,4.16c0,1.31,0.9,2.02,2.21,2.4
		c-1.39,0.9-3,2.17-3,4.01c0,2.7,3.3,3.75,6.59,3.75c5.85,0,8.99-3.45,8.99-6.63c0-1.87-0.79-2.92-1.87-3.45
		c-1.01-0.49-2.13-0.6-3.26-0.64l-4.95-0.23c-0.41-0.04-1.39-0.07-1.39-0.79c0-0.3,0.15-0.56,0.34-0.75c0.41-0.49,0.9-0.9,1.31-1.35
		c0.71,0.15,1.39,0.3,2.06,0.3c2.66,0,6.22-1.91,6.22-6.03c0-1.61-0.75-2.96-1.35-3.86L218.64,14.56L218.64,14.56z M213.28,18.38
		c0,0.26,0,0.67-0.04,1.12c-0.11,1.57-0.71,3.34-2.7,3.34c-2.14,0-2.7-1.91-2.85-3.56c-0.04-0.49-0.04-0.94-0.04-1.2
		c0-0.34,0-0.82,0.04-1.31c0.11-1.54,0.64-3.45,2.66-3.45c2.21,0,2.77,2.06,2.88,3.75C213.28,17.59,213.28,18.04,213.28,18.38
		L213.28,18.38z M216.05,32.5c0,1.84-2.59,3.64-5.7,3.64c-2.32,0-4.27-1.05-4.27-2.85c0-1.42,0.79-2.29,1.46-2.92
		c4.08,0.22,5.73,0.34,6.97,0.6c0.34,0.07,0.64,0.15,0.94,0.34C215.79,31.53,216.05,31.91,216.05,32.5L216.05,32.5z"/>
	<path class="st0" d="M234.07,26.77l-1.28-0.64c-0.6,1.05-1.72,2.81-3.78,2.81c-1.54,0-2.4-0.68-2.89-1.24
		c-1.69-1.91-1.8-4.61-1.87-6.52h9.74c-0.04-2.58-0.08-5.62-2.1-7.57c-1.09-1.05-2.62-1.65-4.27-1.65c-1.57,0-3.93,0.64-5.43,3.3
		c-1.12,2.02-1.42,4.61-1.42,6.75c0,5.58,2.44,9.37,6.82,9.37C231.97,31.38,233.43,28.35,234.07,26.77L234.07,26.77z M230.47,19.69
		h-6.18c0.19-2.25,0.67-6.11,3.34-6.11C230.21,13.58,230.43,17.4,230.47,19.69L230.47,19.69z"/>
	<path class="st0" d="M248.14,14.33c0-1.46-0.9-1.99-2.02-1.99c-1.65,0-2.55,1.24-3.94,3.75v-3.86h-1.24
		c-1.27,0.79-2.59,0.97-4.09,1.12v1.35l2.06,0.41v14.24l-2.1,0.41v1.46c1.5-0.08,2.74-0.15,4.05-0.15c1.28,0,2.47,0.08,4.08,0.15
		v-1.39l-2.66-0.49V18.71c0.23-0.67,0.9-2.51,2.55-3.15l2.02,1.01C247.43,16.28,248.14,15.76,248.14,14.33L248.14,14.33z"/>
	<path class="st0" d="M95.61,70.58v-1.46l-2.25-0.67V45.92l2.21-0.67v-1.5c-1.65,0.08-2.92,0.15-4.05,0.15
		c-1.35,0-2.73-0.08-4.27-0.15v1.5l2.25,0.67v22.52l-2.25,0.67v1.46c1.46-0.08,2.77-0.15,4.08-0.15
		C92.69,70.43,94.07,70.5,95.61,70.58L95.61,70.58z"/>
	<path class="st0" d="M114.77,70.5v-1.46l-1.95-0.41V56.3c0-1.16-0.07-2.77-1.54-3.9c-0.83-0.64-1.99-0.9-2.92-0.9
		c-2.1,0-3.75,1.24-5.17,2.44v-2.55h-1.27c-1.35,0.79-2.59,1.01-4.16,1.16v1.35l2.06,0.3v14.43l-2.06,0.34v1.54
		c1.27-0.07,2.43-0.15,3.52-0.15c1.28,0,2.55,0.08,4.01,0.15v-1.54l-1.95-0.34V55.81c1.05-0.97,2.14-1.87,3.67-1.87
		c2.25,0,2.29,2.32,2.29,3.33v11.35l-1.95,0.41v1.46c1.31-0.07,2.47-0.15,3.6-0.15C112.19,70.35,113.27,70.43,114.77,70.5
		L114.77,70.5z"/>
	<path class="st0" d="M132.44,53.9v-1.87h-4.42c-0.56-0.19-1.12-0.34-1.72-0.49c-0.6-0.15-1.27-0.26-2.06-0.26
		c-3.56,0-6.37,2.47-6.37,6.26c0,3.22,1.95,4.61,3.19,5.32c-2.25,1.57-3.6,2.59-3.6,4.16c0,1.31,0.9,2.02,2.21,2.4
		c-1.39,0.9-3,2.17-3,4.01c0,2.7,3.3,3.75,6.6,3.75c5.85,0,8.99-3.45,8.99-6.63c0-1.87-0.79-2.92-1.87-3.45
		c-1.01-0.49-2.13-0.6-3.26-0.64l-4.95-0.22c-0.41-0.04-1.39-0.08-1.39-0.79c0-0.3,0.15-0.56,0.34-0.75c0.41-0.49,0.9-0.9,1.31-1.35
		c0.71,0.15,1.39,0.3,2.06,0.3c2.66,0,6.22-1.91,6.22-6.03c0-1.61-0.75-2.96-1.35-3.86L132.44,53.9L132.44,53.9z M127.08,57.72
		c0,0.26,0,0.67-0.04,1.12c-0.11,1.57-0.71,3.33-2.7,3.33c-2.13,0-2.7-1.91-2.85-3.56c-0.04-0.49-0.04-0.94-0.04-1.2
		c0-0.34,0-0.82,0.04-1.31c0.11-1.54,0.64-3.45,2.66-3.45c2.21,0,2.77,2.06,2.88,3.75C127.08,56.94,127.08,57.39,127.08,57.72
		L127.08,57.72z M129.85,71.85c0,1.84-2.59,3.63-5.7,3.63c-2.32,0-4.27-1.05-4.27-2.85c0-1.42,0.79-2.29,1.46-2.92
		c4.08,0.22,5.73,0.34,6.97,0.6c0.34,0.07,0.64,0.15,0.94,0.34C129.59,70.88,129.85,71.25,129.85,71.85L129.85,71.85z"/>
	<path class="st0" d="M147.87,66.12l-1.27-0.64c-0.6,1.05-1.72,2.81-3.78,2.81c-1.54,0-2.4-0.67-2.89-1.24
		c-1.69-1.91-1.8-4.61-1.87-6.52h9.74c-0.04-2.58-0.07-5.62-2.1-7.57c-1.09-1.05-2.62-1.65-4.27-1.65c-1.57,0-3.94,0.64-5.44,3.3
		c-1.12,2.02-1.42,4.61-1.42,6.75c0,5.58,2.44,9.37,6.82,9.37C145.77,70.73,147.23,67.69,147.87,66.12L147.87,66.12z M144.27,59.04
		h-6.18c0.19-2.25,0.67-6.11,3.34-6.11C144.01,52.93,144.23,56.75,144.27,59.04L144.27,59.04z"/>
	<path class="st0" d="M157.46,70.58v-1.39l-2.03-0.45V42.17h-1.12c-1.28,0.86-2.88,0.97-4.35,1.05v1.39l2.06,0.34v23.79l-2.1,0.41
		v1.42c1.35-0.08,2.55-0.15,3.71-0.15C154.83,70.43,156.07,70.5,157.46,70.58L157.46,70.58z"/>
	<path class="st0" d="M176.95,70.61v-1.39l-1.99-0.38V56.26c0-0.94-0.04-2.21-1.01-3.3c-0.71-0.82-1.95-1.39-3.33-1.39
		c-2.17,0-3.75,1.2-5.21,2.4v-11.8h-1.2c-1.01,0.75-2.14,0.94-4.27,1.05v1.39l1.99,0.45v23.79l-2.06,0.34v1.42
		c1.35-0.11,2.51-0.19,3.71-0.19c1.16,0,2.36,0.07,3.71,0.19v-1.39l-1.88-0.38V55.89c1.05-0.97,2.21-1.91,3.75-1.91
		c1.16,0,1.83,0.71,2.1,1.57c0.15,0.52,0.19,0.97,0.19,2.44v10.87l-1.87,0.38v1.39c1.31-0.08,2.21-0.19,3.26-0.19
		C174.14,70.43,175.45,70.54,176.95,70.61L176.95,70.61z"/>
	<path class="st0" d="M192.92,66.12l-1.27-0.64c-0.6,1.05-1.72,2.81-3.78,2.81c-1.54,0-2.4-0.67-2.89-1.24
		c-1.69-1.91-1.8-4.61-1.87-6.52h9.74c-0.04-2.58-0.07-5.62-2.1-7.57c-1.09-1.05-2.62-1.65-4.27-1.65c-1.57,0-3.93,0.64-5.43,3.3
		c-1.12,2.02-1.42,4.61-1.42,6.75c0,5.58,2.44,9.37,6.82,9.37C190.82,70.73,192.29,67.69,192.92,66.12L192.92,66.12z M189.32,59.04
		h-6.18c0.19-2.25,0.67-6.11,3.33-6.11C189.06,52.93,189.29,56.75,189.32,59.04L189.32,59.04z"/>
	<path class="st0" d="M201.94,46.79c0-1.31-1.05-2.36-2.36-2.36c-1.31,0-2.4,1.05-2.4,2.36c0,1.31,1.09,2.36,2.4,2.36
		C200.89,49.15,201.94,48.1,201.94,46.79L201.94,46.79z M203.28,70.58v-1.42l-2.1-0.37V51.39h-1.12c-1.46,1.01-2.51,1.05-4.23,1.2
		v1.39l1.91,0.38v14.43l-1.99,0.37v1.42c1.42-0.08,2.7-0.15,3.9-0.15C200.81,70.43,201.79,70.5,203.28,70.58L203.28,70.58z"/>
	<path class="st0" d="M232.78,70.58v-1.46l-2.02-0.34V56.15c0-1.05-0.15-2.77-1.91-3.82c-0.94-0.56-2.1-0.67-2.81-0.67
		c-2.17,0-3.82,1.05-5.28,2.59c-0.15-0.3-0.26-0.49-0.38-0.67c-0.79-1.31-2.32-1.87-3.82-1.87c-1.99,0-3.82,0.9-5.36,2.4v-2.55H210
		c-1.54,0.86-2.47,0.97-4.27,1.09v1.31l2.06,0.38v14.46l-2.1,0.3v1.42c1.39-0.07,2.62-0.15,3.79-0.15c1.16,0,2.25,0.08,3.75,0.15
		v-1.39l-1.88-0.34V55.85c0.86-0.86,2.03-1.91,3.79-1.91c2.17,0,2.4,2.02,2.4,3.45v11.39l-2.06,0.34v1.39
		c1.31-0.07,2.55-0.15,3.67-0.15c1.2,0,2.44,0.08,3.82,0.15v-1.39l-1.95-0.34V55.92c1.05-1.01,2.21-1.99,3.78-1.99
		c2.29,0,2.4,2.32,2.4,3.37v11.47l-2.06,0.34v1.46c1.42-0.08,2.59-0.15,3.79-0.15S231.4,70.5,232.78,70.58L232.78,70.58z"/>
</g>
</svg>
