<?xml version="1.0" encoding="utf-8"?>
<!-- Generator: Adobe Illustrator 23.0.2, SVG Export Plug-In . SVG Version: 6.00 Build 0)  -->
<svg version="1.1" id="Layer_1" xmlns="http://www.w3.org/2000/svg" xmlns:xlink="http://www.w3.org/1999/xlink" x="0px" y="0px"
	 viewBox="0 0 27.82 18.27" style="enable-background:new 0 0 27.82 18.27;" xml:space="preserve">
<style type="text/css">
	.st0{fill:#24356F;}
</style>
<g>
	<polygon class="st0" points="0.86,0 14.32,12.09 27.48,0 	"/>
	<polygon class="st0" points="26.59,18.27 17.74,11.04 14.34,14.17 10.92,11.1 2.32,18.27 	"/>
	<polygon class="st0" points="18.89,9.98 27.82,17.28 27.82,1.78 	"/>
	<polygon class="st0" points="0.06,18.14 9.76,10.06 0,1.3 0,18.27 0.17,18.27 	"/>
</g>
</svg>
