<?xml version="1.0" standalone="no"?>
<!DOCTYPE svg PUBLIC "-//W3C//DTD SVG 1.1//EN" "http://www.w3.org/Graphics/SVG/1.1/DTD/svg11.dtd" >
<svg xmlns="http://www.w3.org/2000/svg" xmlns:xlink="http://www.w3.org/1999/xlink" version="1.1">
<metadata>
Created by FontForge 20170924 at Fri Oct  8 16:14:55 1999
 By www-data
Copyright (c) 1988, 1990, 1993 Adobe Systems Incorporated.  All Rights Reserved.Helvetica is a trademark of Linotype-Hell AG and/or its subsidiaries.
</metadata>
<defs>
<font id="HelveticaNeue-Black" horiz-adv-x="668" >
  <font-face 
    font-family="Helvetica Neue"
    font-weight="900"
    font-stretch="normal"
    units-per-em="1000"
    panose-1="2 11 10 0 0 0 0 0 0 0"
    ascent="768"
    descent="-232"
    x-height="519"
    cap-height="714"
    bbox="-165 -232 1101 953"
    underline-thickness="50"
    underline-position="-100"
    stemh="144"
    stemv="198"
    unicode-range="U+0020-FB02"
  />
<missing-glyph horiz-adv-x="334" 
 />
    <glyph glyph-name=".notdef" horiz-adv-x="334" 
 />
    <glyph glyph-name="space" unicode=" " horiz-adv-x="334" 
 />
    <glyph glyph-name="space" unicode="&#xa0;" horiz-adv-x="334" 
 />
    <glyph glyph-name="exclam" unicode="!" horiz-adv-x="315" 
d="M53 0v198h208v-198h-208zM261 714v-168l-55 -289h-97l-56 289v168h208z" />
    <glyph glyph-name="quotedbl" unicode="&#x22;" horiz-adv-x="519" 
d="M290 335v379h153v-379h-153zM77 335v379h153v-379h-153z" />
    <glyph glyph-name="numbersign" unicode="#" 
d="M380 398h-71l-13 -96h71zM121 0l26 185h-86l16 117h86l13 96h-85l16 117h85l25 181h133l-25 -181h71l25 181h133l-25 -181h78l-16 -117h-78l-13 -96h77l-16 -117h-77l-26 -185h-133l26 185h-71l-26 -185h-133z" />
    <glyph glyph-name="dollar" unicode="$" 
d="M311 473v100c-36 0 -71 -6 -71 -46c0 -26 25 -45 71 -54zM363 268v-127c47 4 83 22 83 61c0 34 -31 49 -83 66zM311 -116v99c-210 0 -292 124 -297 255h214c1 -35 7 -91 83 -97v141c-27 8 -55 15 -86 25c-110 37 -183 76 -183 190c0 163 143 234 269 234v80h52v-80
c140 -1 264 -69 264 -233h-191c-6 52 -22 65 -73 75v-112c259 -57 291 -134 291 -247c0 -109 -79 -231 -291 -231v-99h-52z" />
    <glyph glyph-name="percent" unicode="%" horiz-adv-x="1019" 
d="M245 -26l410 748h110l-410 -748h-110zM67 514c1 111 53 190 176 190s175 -79 176 -190c-1 -111 -53 -190 -176 -190s-175 79 -176 190zM197 514c0 -46 0 -103 46 -103s46 57 46 103s0 103 -46 103s-46 -57 -46 -103zM601 182c1 111 53 190 176 190s175 -79 176 -190
c-1 -111 -53 -190 -176 -190s-175 79 -176 190zM731 182c0 -46 0 -103 46 -103s46 57 46 103s0 103 -46 103s-46 -57 -46 -103z" />
    <glyph glyph-name="ampersand" unicode="&#x26;" horiz-adv-x="741" 
d="M309 549c0 -25 26 -52 44 -73c28 13 57 41 57 74c0 26 -20 48 -48 48c-25 0 -53 -18 -53 -49zM378 184l-83 101c-29 -15 -69 -41 -69 -77c0 -39 34 -67 68 -67c32 0 60 21 84 43zM523 0l-40 50c-65 -51 -125 -67 -204 -67c-137 0 -243 93 -243 232c0 95 81 161 159 201
c-33 36 -56 80 -56 130c0 114 106 185 212 185c133 0 229 -58 229 -185c0 -81 -63 -148 -131 -184l55 -68c13 17 23 36 26 54h165c-10 -61 -38 -125 -84 -173l146 -175h-234z" />
    <glyph glyph-name="quoteright" unicode="&#x2019;" horiz-adv-x="296" 
d="M240 714v-164c0 -106 -24 -192 -184 -215v87c59 7 81 42 82 94h-82v198h184z" />
    <glyph glyph-name="parenleft" unicode="(" horiz-adv-x="315" 
d="M150 731h171c-65 -160 -89 -300 -89 -453c0 -150 24 -282 89 -446h-171c-74 152 -108 288 -108 446s34 307 108 453z" />
    <glyph glyph-name="parenright" unicode=")" horiz-adv-x="315" 
d="M167 -168h-173c62 141 89 287 89 446c0 167 -27 293 -89 453h173c72 -143 106 -298 106 -453c0 -169 -34 -291 -106 -446z" />
    <glyph glyph-name="asterisk" unicode="*" horiz-adv-x="463" 
d="M288 714v-132l121 43l38 -105l-128 -41l80 -105l-90 -71l-79 114l-80 -114l-90 71l85 105l-128 41l36 105l125 -43v132h110z" />
    <glyph glyph-name="plus" unicode="+" horiz-adv-x="600" 
d="M48 176v153h176v176h153v-176h176v-153h-176v-176h-153v176h-176z" />
    <glyph glyph-name="comma" unicode="," horiz-adv-x="334" 
d="M63 0v198h208v-157c0 -94 -33 -181 -122 -210c-36 -12 -67 -12 -86 -12v87c49 4 86 46 89 94h-89z" />
    <glyph glyph-name="hyphen" unicode="-" horiz-adv-x="407" 
d="M47 185v164h313v-164h-313z" />
    <glyph glyph-name="hyphen" unicode="&#xad;" horiz-adv-x="407" 
d="M47 185v164h313v-164h-313z" />
    <glyph glyph-name="period" unicode="." horiz-adv-x="334" 
d="M63 0v198h208v-198h-208z" />
    <glyph glyph-name="slash" unicode="/" horiz-adv-x="426" 
d="M-1 -17l280 748h152l-280 -748h-152z" />
    <glyph glyph-name="zero" unicode="0" 
d="M228 348c0 -73 4 -203 105 -203c102 0 107 129 107 203c0 72 -5 203 -105 203c-103 0 -107 -128 -107 -203zM38 348c0 269 170 356 295 356c127 0 297 -87 297 -356s-170 -356 -296 -356s-296 87 -296 356z" />
    <glyph glyph-name="one" unicode="1" 
d="M279 0v401h-163v144c101 -2 201 36 207 151h164v-696h-208z" />
    <glyph glyph-name="two" unicode="2" 
d="M237 403h-188c-11 191 108 301 295 301c169 0 284 -71 284 -219c0 -178 -174 -234 -305 -314v-1h315v-170h-603c-4 67 16 125 50 172c58 81 158 134 247 188c36 22 94 50 94 101c0 63 -37 85 -84 85c-80 0 -107 -58 -105 -143z" />
    <glyph glyph-name="three" unicode="3" 
d="M242 464h-188c1 82 34 142 87 182c53 39 125 58 203 58c202 0 269 -120 269 -179c0 -146 -92 -146 -92 -149v-2c0 -8 114 -8 114 -163c0 -85 -64 -219 -292 -219c-313 0 -314 220 -309 272h190c-1 -37 8 -65 27 -83c19 -23 48 -31 83 -31c57 0 93 21 93 78
c0 61 -47 72 -93 72c-29 0 -43 -3 -58 -5v136c15 -1 31 -4 58 -4c42 0 95 9 95 63c0 44 -50 61 -91 61c-54 0 -98 -29 -96 -87z" />
    <glyph glyph-name="four" unicode="4" 
d="M339 503l-170 -195h170v195zM339 0v138h-309v188l318 370h199v-388h94v-170h-94v-138h-208z" />
    <glyph glyph-name="five" unicode="5" 
d="M589 696v-170h-324l-20 -92l2 -2c43 32 100 41 152 41c124 0 227 -72 227 -236c0 -141 -111 -245 -312 -245c-257 0 -304 158 -298 227h197c4 -18 14 -35 28 -46c20 -16 48 -23 79 -23c58 0 106 38 106 93c0 61 -40 97 -100 97c-47 0 -80 -13 -101 -45h-186l72 401h478z
" />
    <glyph glyph-name="six" unicode="6" 
d="M340 338c-54 0 -95 -40 -95 -92c0 -55 40 -96 95 -96c60 0 102 43 102 96c0 49 -40 92 -102 92zM619 510h-183c-4 13 -14 27 -29 38c-14 9 -32 12 -54 12c-76 0 -114 -74 -121 -143c47 43 98 54 161 54c134 0 233 -86 233 -222c0 -171 -120 -257 -286 -257
c-211 0 -297 160 -297 331c0 219 101 381 314 381c150 0 240 -58 262 -194z" />
    <glyph glyph-name="seven" unicode="7" 
d="M601 696v-162c-171 -158 -212 -369 -210 -534h-221c-2 0 6 223 142 417c66 98 86 109 85 109h-333v170h537z" />
    <glyph glyph-name="eight" unicode="8" 
d="M222 213c0 -60 61 -77 111 -77c49 0 112 17 112 77c0 67 -50 90 -110 90c-58 0 -113 -20 -113 -90zM55 513c0 153 163 191 278 191c191 0 282 -90 282 -191c0 -72 -43 -131 -109 -146v-2c77 -8 137 -67 137 -153c0 -165 -169 -220 -310 -220c-150 0 -309 51 -309 220
c0 119 89 144 139 153v2c-74 20 -108 71 -108 146zM233 493c0 -55 51 -73 99 -73c49 0 105 15 105 73c0 66 -52 78 -104 78s-100 -15 -100 -78z" />
    <glyph glyph-name="nine" unicode="9" 
d="M327 546c-53 0 -102 -41 -102 -96c0 -54 48 -94 100 -94c54 0 100 37 100 93c0 55 -43 97 -98 97zM48 183h183c4 -15 16 -29 31 -37c16 -8 34 -10 48 -10c90 0 114 83 125 140l-2 2c-44 -38 -97 -55 -156 -55c-136 0 -236 78 -236 221c0 169 135 260 293 260
c204 0 293 -156 293 -331c0 -221 -104 -381 -317 -381c-129 0 -240 54 -262 191z" />
    <glyph glyph-name="colon" unicode=":" horiz-adv-x="334" 
d="M63 321v198h208v-198h-208zM63 0v198h208v-198h-208z" />
    <glyph glyph-name="semicolon" unicode=";" horiz-adv-x="334" 
d="M63 0v198h208v-157c0 -94 -33 -181 -122 -210c-36 -12 -67 -12 -86 -12v87c51 4 86 48 89 94h-89zM271 519v-198h-208v198h208z" />
    <glyph glyph-name="less" unicode="&#x3c;" horiz-adv-x="600" 
d="M553 513v-161l-272 -99l272 -100v-161l-505 197v126z" />
    <glyph glyph-name="equal" unicode="=" horiz-adv-x="600" 
d="M553 450v-153h-505v153h505zM553 209v-153h-505v153h505z" />
    <glyph glyph-name="greater" unicode="&#x3e;" horiz-adv-x="600" 
d="M48 -8v161l272 99l-272 100v161l505 -197v-126z" />
    <glyph glyph-name="question" unicode="?" horiz-adv-x="574" 
d="M224 476h-209c7 125 82 255 278 255c195 0 260 -117 266 -206c0 -123 -70 -143 -136 -179c-45 -25 -56 -44 -56 -90h-185c-2 41 -7 133 70 176c31 17 93 33 93 78c0 33 -21 51 -58 51c-48 0 -67 -41 -63 -85zM170 0v198h208v-198h-208z" />
    <glyph glyph-name="at" unicode="@" horiz-adv-x="800" 
d="M320 334c0 -39 26 -75 66 -75c54 0 95 48 95 98c0 44 -31 76 -72 76c-49 0 -89 -47 -89 -99zM622 537l-47 -239c-3 -12 -4 -23 -4 -32c0 -15 5 -24 14 -24c36 0 87 46 87 160c0 157 -111 226 -258 226c-164 0 -287 -115 -287 -272c0 -168 132 -270 283 -270
c97 0 154 20 204 57h114c-71 -106 -174 -160 -318 -160c-219 0 -386 155 -386 373c0 240 173 375 393 375c223 0 358 -129 358 -298c0 -233 -198 -296 -262 -296c-32 0 -55 16 -57 50h-2c-18 -29 -50 -50 -101 -50c-102 0 -166 81 -166 181c0 132 88 237 208 237
c50 0 92 -17 122 -59l10 41h95z" />
    <glyph glyph-name="A" unicode="A" horiz-adv-x="722" 
d="M293 255h135l-64 220h-2zM-8 0l263 714h215l260 -714h-228l-30 102h-227l-32 -102h-221z" />
    <glyph glyph-name="B" unicode="B" horiz-adv-x="741" 
d="M277 303v-133h129c46 0 86 13 86 68c0 42 -25 65 -77 65h-138zM57 0v714h391c188 0 228 -106 228 -179c0 -72 -35 -111 -88 -140c64 -22 124 -73 124 -178c0 -143 -124 -217 -250 -217h-405zM277 544v-108h116c46 0 75 13 75 59c0 36 -30 49 -75 49h-116z" />
    <glyph glyph-name="C" unicode="C" horiz-adv-x="759" 
d="M721 448h-214c-4 26 -24 105 -115 105c-103 0 -136 -100 -136 -196s33 -196 136 -196c74 0 103 52 116 119h216c0 -144 -117 -297 -326 -297c-231 0 -362 163 -362 374c0 225 142 374 362 374c196 -1 304 -104 323 -283z" />
    <glyph glyph-name="D" unicode="D" horiz-adv-x="778" 
d="M57 0v714h361c238 0 322 -176 322 -356c0 -219 -116 -358 -365 -358h-318zM277 531v-348h86c137 0 157 111 157 178c0 45 -14 170 -173 170h-70z" />
    <glyph glyph-name="E" unicode="E" horiz-adv-x="704" 
d="M57 0v714h591v-183h-371v-89h337v-170h-337v-89h382v-183h-602z" />
    <glyph glyph-name="F" unicode="F" horiz-adv-x="630" 
d="M57 0v714h552v-183h-332v-89h285v-170h-285v-272h-220z" />
    <glyph glyph-name="G" unicode="G" horiz-adv-x="778" 
d="M587 0l-7 73c-49 -63 -125 -90 -203 -90c-211 0 -341 164 -341 367c0 272 191 381 352 381c182 0 297 -99 329 -267h-211c-8 52 -52 89 -104 89c-151 0 -146 -159 -146 -208c0 -67 27 -184 161 -184c51 0 103 26 114 79h-97v153h292v-393h-139z" />
    <glyph glyph-name="H" unicode="H" horiz-adv-x="759" 
d="M57 0v714h220v-248h206v248h220v-714h-220v283h-206v-283h-220z" />
    <glyph glyph-name="I" unicode="I" horiz-adv-x="333" 
d="M57 0v714h220v-714h-220z" />
    <glyph glyph-name="J" unicode="J" horiz-adv-x="611" 
d="M555 714v-457c0 -197 -89 -274 -268 -274c-181 0 -262 101 -262 257v60h198v-41c0 -55 0 -106 59 -106c57 0 53 69 53 101v460h220z" />
    <glyph glyph-name="K" unicode="K" horiz-adv-x="778" 
d="M63 0v714h220v-246h2l196 246h271l-259 -279l301 -435h-274l-176 278l-61 -67v-211h-220z" />
    <glyph glyph-name="L" unicode="L" horiz-adv-x="630" 
d="M57 0v714h220v-531h316v-183h-536z" />
    <glyph glyph-name="M" unicode="M" horiz-adv-x="944" 
d="M56 0v714h313l102 -420h2l102 420h313v-714h-208v458h-2l-124 -458h-164l-124 458h-2v-458h-208z" />
    <glyph glyph-name="N" unicode="N" horiz-adv-x="759" 
d="M58 0v714h225l208 -382h2v382h208v-714h-214l-219 390h-2v-390h-208z" />
    <glyph glyph-name="O" unicode="O" horiz-adv-x="796" 
d="M36 357c0 218 145 374 362 374s362 -156 362 -374s-145 -374 -362 -374s-362 156 -362 374zM256 357c0 -159 86 -196 142 -196s142 37 142 196s-86 196 -142 196s-142 -37 -142 -196z" />
    <glyph glyph-name="P" unicode="P" horiz-adv-x="704" 
d="M57 0v714h368c194 0 262 -142 262 -244c0 -173 -116 -254 -280 -254h-130v-216h-220zM277 531v-145h85c57 0 117 4 117 76c0 65 -50 69 -104 69h-98z" />
    <glyph glyph-name="Q" unicode="Q" horiz-adv-x="796" 
d="M367 227l99 96l60 -61c9 25 14 56 14 95c0 159 -86 196 -142 196s-142 -37 -142 -196s86 -196 142 -196c9 0 18 1 29 4zM762 20l-99 -98l-96 99c-40 -25 -103 -38 -169 -38c-217 0 -362 156 -362 374s145 374 362 374s362 -156 362 -374c0 -99 -30 -185 -83 -250z" />
    <glyph glyph-name="R" unicode="R" horiz-adv-x="741" 
d="M57 0v714h419c125 0 233 -69 233 -204c0 -74 -34 -152 -107 -179c60 -23 97 -89 105 -178c3 -35 4 -120 24 -153h-220c-11 36 -15 73 -18 110c-6 68 -12 139 -99 139h-117v-249h-220zM277 544v-142h115c41 0 97 7 97 71c0 45 -25 71 -109 71h-103z" />
    <glyph glyph-name="S" unicode="S" horiz-adv-x="667" 
d="M12 240h220c0 -18 3 -34 8 -47c16 -43 64 -52 105 -52c36 0 91 12 91 65c0 37 -31 47 -154 82c-113 32 -242 63 -242 207c0 165 141 236 288 236c155 0 292 -59 298 -233h-208c4 27 -8 45 -26 57c-18 13 -43 18 -65 18c-30 0 -79 -8 -79 -48c4 -51 106 -62 207 -90
s201 -75 201 -206c0 -186 -171 -246 -330 -246c-81 0 -312 29 -314 257z" />
    <glyph glyph-name="T" unicode="T" 
d="M224 0v531h-200v183h620v-183h-200v-531h-220z" />
    <glyph glyph-name="U" unicode="U" horiz-adv-x="759" 
d="M705 714v-438c0 -198 -107 -293 -325 -293s-326 95 -326 293v438h220v-389c0 -73 0 -164 107 -164c104 0 104 91 104 164v389h220z" />
    <glyph glyph-name="V" unicode="V" horiz-adv-x="648" 
d="M665 714l-223 -714h-246l-213 714h222l117 -433h2l115 433h226z" />
    <glyph glyph-name="W" unicode="W" horiz-adv-x="963" 
d="M970 714l-200 -714h-214l-77 435h-2l-75 -435h-215l-194 714h216l87 -441h2l86 441h194l84 -447h2l89 447h217z" />
    <glyph glyph-name="X" unicode="X" horiz-adv-x="741" 
d="M-12 0l258 380l-235 334h258l108 -194l106 194h244l-229 -336l255 -378h-265l-122 213l-126 -213h-252z" />
    <glyph glyph-name="Y" unicode="Y" horiz-adv-x="667" 
d="M221 0v263l-251 451h243l119 -263l124 263h241l-256 -451v-263h-220z" />
    <glyph glyph-name="Z" unicode="Z" horiz-adv-x="685" 
d="M24 0v172l332 359h-313v183h603v-160l-335 -371h351v-183h-638z" />
    <glyph glyph-name="bracketleft" unicode="[" horiz-adv-x="407" 
d="M38 -168v899h332v-153h-154v-593h154v-153h-332z" />
    <glyph glyph-name="backslash" unicode="\" horiz-adv-x="426" 
d="M147 731l280 -748h-152l-280 748h152z" />
    <glyph glyph-name="bracketright" unicode="]" horiz-adv-x="407" 
d="M370 731v-899h-332v153h154v593h-154v153h332z" />
    <glyph glyph-name="asciicircum" unicode="^" horiz-adv-x="600" 
d="M65 331l174 365h122l174 -365h-153l-82 189l-82 -189h-153z" />
    <glyph glyph-name="underscore" unicode="_" horiz-adv-x="500" 
d="M0 -125v50h500v-50h-500z" />
    <glyph glyph-name="quoteleft" unicode="&#x2018;" horiz-adv-x="296" 
d="M56 335v164c0 106 24 192 184 215v-87c-59 -7 -81 -42 -82 -94h82v-198h-184z" />
    <glyph glyph-name="a" unicode="a" horiz-adv-x="611" 
d="M370 185v48c-24 -12 -51 -19 -78 -25c-44 -10 -67 -21 -67 -56c0 -24 26 -48 62 -48c45 0 80 27 83 81zM560 329v-213c0 -39 2 -83 24 -116h-202c-5 14 -8 35 -7 49h-2c-42 -48 -103 -62 -167 -62c-100 0 -183 48 -183 157c0 164 192 158 293 177c27 5 54 13 54 46
c0 35 -33 48 -65 48c-61 0 -73 -31 -74 -53h-184c6 146 144 170 267 170c248 0 246 -103 246 -203z" />
    <glyph glyph-name="b" unicode="b" horiz-adv-x="648" 
d="M419 260c0 61 -16 128 -87 128s-87 -67 -87 -128c0 -62 16 -129 87 -129s87 67 87 129zM54 0v714h198v-252h2c30 44 83 70 142 70c174 0 221 -148 221 -270c0 -130 -71 -275 -218 -275c-97 0 -127 37 -152 70h-2v-57h-191z" />
    <glyph glyph-name="c" unicode="c" horiz-adv-x="611" 
d="M577 322h-188c-2 21 -9 38 -22 49c-12 11 -29 17 -50 17c-76 0 -87 -66 -87 -129s11 -128 87 -128c43 0 73 35 77 76h189c-19 -141 -130 -220 -270 -220c-156 0 -281 108 -281 272s125 273 281 273c136 0 252 -67 264 -210z" />
    <glyph glyph-name="d" unicode="d" horiz-adv-x="648" 
d="M594 714v-714h-191v57h-2c-25 -33 -55 -70 -152 -70c-147 0 -218 145 -218 275c0 122 47 270 221 270c59 0 112 -26 142 -70h2v252h198zM403 260c0 61 -16 128 -87 128s-87 -67 -87 -128c0 -62 16 -129 87 -129s87 67 87 129z" />
    <glyph glyph-name="e" unicode="e" horiz-adv-x="630" 
d="M222 318h189c0 48 -36 87 -87 87c-59 0 -93 -31 -102 -87zM601 215h-380c5 -59 39 -101 101 -101c32 0 67 12 83 37h185c-40 -112 -149 -164 -267 -164c-166 0 -291 98 -291 271c0 151 110 274 274 274c206 0 295 -115 295 -317z" />
    <glyph glyph-name="f" unicode="f" horiz-adv-x="389" 
d="M87 0v397h-81v122h81c-2 51 3 108 41 146c43 43 93 49 173 49c30 0 59 -3 89 -4v-136c-16 2 -32 7 -48 7c-48 0 -64 -14 -61 -62h104v-122h-100v-397h-198z" />
    <glyph glyph-name="g" unicode="g" horiz-adv-x="630" 
d="M220 285c0 -59 18 -127 89 -127c73 0 81 70 81 128c0 57 -28 102 -86 102c-56 0 -84 -48 -84 -103zM583 519v-452c0 -103 -27 -248 -270 -248c-123 0 -253 33 -271 173h196c2 -5 7 -12 11 -18c12 -18 33 -38 58 -38c64 0 78 76 78 119v48h-2c-32 -46 -80 -72 -139 -72
c-153 0 -222 114 -222 253c0 135 77 248 225 248c58 0 113 -23 136 -76h2v63h198z" />
    <glyph glyph-name="h" unicode="h" horiz-adv-x="648" 
d="M54 0v714h198v-251h2c34 40 78 69 162 69c93 0 178 -57 178 -176v-356h-198v272c0 60 -7 102 -65 102c-34 0 -79 -17 -79 -100v-274h-198z" />
    <glyph glyph-name="i" unicode="i" horiz-adv-x="315" 
d="M58 0v519h198v-519h-198zM256 714v-139h-198v139h198z" />
    <glyph glyph-name="j" unicode="j" horiz-adv-x="315" 
d="M-30 -168v158h33c40 0 55 14 55 64v465h198v-484c0 -83 -5 -133 -46 -168c-37 -32 -100 -34 -147 -35h-93zM256 714v-139h-198v139h198z" />
    <glyph glyph-name="k" unicode="k" horiz-adv-x="611" 
d="M58 0v714h198v-345l126 150h224l-185 -196l214 -323h-238l-106 188l-35 -38v-150h-198z" />
    <glyph glyph-name="l" unicode="l" horiz-adv-x="315" 
d="M58 0v714h198v-714h-198z" />
    <glyph glyph-name="m" unicode="m" horiz-adv-x="963" 
d="M53 0v519h191v-69h2c40 60 98 82 170 82c56 0 116 -29 140 -81c8 6 48 81 177 81c133 0 178 -92 178 -176v-356h-198v281c0 49 -5 93 -65 93c-50 0 -67 -39 -67 -93v-281h-198v281c0 49 -5 93 -65 93c-50 0 -67 -39 -67 -93v-281h-198z" />
    <glyph glyph-name="n" unicode="n" horiz-adv-x="648" 
d="M54 0v519h191v-66h2c37 52 90 79 169 79c93 0 178 -57 178 -176v-356h-198v272c0 60 -7 102 -65 102c-34 0 -79 -17 -79 -100v-274h-198z" />
    <glyph glyph-name="o" unicode="o" horiz-adv-x="630" 
d="M598 260c0 -144 -88 -273 -283 -273s-283 129 -283 273s88 272 283 272s283 -128 283 -272zM400 260c0 55 -10 128 -85 128s-85 -73 -85 -128s10 -129 85 -129s85 74 85 129z" />
    <glyph glyph-name="p" unicode="p" horiz-adv-x="648" 
d="M245 259c0 -61 16 -128 87 -128s87 67 87 128c0 62 -16 129 -87 129s-87 -67 -87 -129zM54 -168v687h191v-57h2c25 33 55 70 152 70c147 0 218 -145 218 -275c0 -122 -47 -270 -221 -270c-59 0 -112 26 -142 70h-2v-225h-198z" />
    <glyph glyph-name="q" unicode="q" horiz-adv-x="648" 
d="M594 519v-687h-198v225h-2c-30 -44 -83 -70 -142 -70c-174 0 -221 148 -221 270c0 130 71 275 218 275c97 0 127 -37 152 -70h2v57h191zM403 259c1 67 -16 129 -87 129s-87 -67 -87 -129c0 -61 16 -128 87 -128s87 67 87 128z" />
    <glyph glyph-name="r" unicode="r" horiz-adv-x="444" 
d="M54 0v519h190v-83h2c32 62 74 96 146 96c20 0 39 -3 58 -8v-175c-20 7 -38 13 -78 13c-78 0 -120 -46 -120 -157v-205h-198z" />
    <glyph glyph-name="s" unicode="s" horiz-adv-x="574" 
d="M534 368h-180c-1 17 -10 30 -23 39c-12 10 -28 15 -44 15c-28 0 -60 -6 -60 -40c0 -15 12 -22 23 -27c33 -14 108 -18 174 -40c66 -21 124 -60 124 -145c0 -144 -138 -183 -264 -183c-122 0 -256 49 -259 183h189c1 -18 9 -33 24 -46c10 -9 29 -15 53 -15
c26 0 67 10 67 40s-17 39 -109 55c-151 26 -212 74 -212 163c0 131 141 165 245 165c112 0 247 -31 252 -164z" />
    <glyph glyph-name="t" unicode="t" horiz-adv-x="407" 
d="M292 677v-158h106v-122h-106v-181c0 -48 11 -69 61 -69c15 0 30 1 45 3v-150c-40 0 -85 -6 -127 -6c-84 0 -177 13 -177 155v248h-88v122h88v158h198z" />
    <glyph glyph-name="u" unicode="u" horiz-adv-x="648" 
d="M594 519v-519h-191v66h-2c-37 -52 -90 -79 -169 -79c-93 0 -178 57 -178 176v356h198v-272c0 -60 7 -102 65 -102c34 0 79 17 79 100v274h198z" />
    <glyph glyph-name="v" unicode="v" horiz-adv-x="556" 
d="M566 519l-172 -519h-234l-170 519h209l81 -316h2l82 316h202z" />
    <glyph glyph-name="w" unicode="w" horiz-adv-x="870" 
d="M878 519l-165 -519h-203l-75 319h-2l-77 -319h-203l-162 519h206l77 -321h2l66 321h185l69 -321h4l72 321h206z" />
    <glyph glyph-name="x" unicode="x" horiz-adv-x="556" 
d="M-14 0l181 273l-163 246h218l57 -103l58 103h212l-163 -246l184 -273h-218l-76 127l-73 -127h-217z" />
    <glyph glyph-name="y" unicode="y" horiz-adv-x="556" 
d="M571 519l-172 -479c-16 -46 -34 -105 -65 -144c-52 -65 -132 -64 -209 -64h-90v158h46c20 0 46 -2 60 5c12 6 19 16 19 39c0 25 -76 216 -87 246l-88 239h212l83 -298h2l84 298h205z" />
    <glyph glyph-name="z" unicode="z" horiz-adv-x="556" 
d="M17 0v153l243 222h-221v144h475v-152l-237 -223h258v-144h-518z" />
    <glyph glyph-name="braceleft" unicode="{" horiz-adv-x="407" 
d="M369 731v-153h-35c-47 0 -51 -36 -51 -61v-145c0 -72 -73 -88 -119 -90v-2c46 -3 119 -9 119 -98v-136c0 -25 4 -61 58 -61h28v-153h-114c-61 0 -142 39 -142 128v180c0 58 -60 65 -84 65v153c24 0 84 5 84 57v188c0 89 81 128 142 128h114z" />
    <glyph glyph-name="bar" unicode="|" horiz-adv-x="222" 
d="M35 -214v1000h153v-1000h-153z" />
    <glyph glyph-name="braceright" unicode="}" horiz-adv-x="407" 
d="M38 -168v153h28c54 0 58 36 58 61v145c0 72 73 88 119 90v2c-46 3 -119 9 -119 98v136c0 25 -4 61 -58 61h-28v153h114c61 0 142 -39 142 -128v-180c0 -58 60 -65 84 -65v-153c-24 0 -84 -5 -84 -57v-188c0 -89 -81 -128 -142 -128h-114z" />
    <glyph glyph-name="asciitilde" unicode="~" horiz-adv-x="600" 
d="M495 367l36 -138c-30 -42 -63 -86 -125 -86c-37 0 -69 15 -102 33c-32 18 -69 34 -115 34c-44 0 -68 -36 -84 -71l-36 138c22 42 58 86 125 86c34 0 73 -15 111 -32c37 -16 75 -35 102 -35c40 0 65 36 88 71z" />
    <glyph glyph-name="exclamdown" unicode="&#xa1;" horiz-adv-x="315" 
d="M54 -166v168l56 289h97l55 -289v-168h-208zM262 548v-198h-208v198h208z" />
    <glyph glyph-name="cent" unicode="&#xa2;" 
d="M317 135v252c-56 -11 -73 -60 -72 -123c-1 -58 13 -115 72 -129zM317 -109v96c-156 0 -262 116 -262 276c0 151 106 269 262 269v80h52v-80c150 0 218 -78 234 -210h-181c-2 38 -22 59 -53 65v-252c33 17 54 36 57 72h182c-17 -130 -116 -220 -239 -220v-96h-52z" />
    <glyph glyph-name="sterling" unicode="&#xa3;" 
d="M619 484h-193c0 16 -4 38 -14 55c-10 16 -27 34 -54 34c-47 0 -64 -24 -64 -60c0 -32 26 -72 37 -101h109v-127h-75c11 -46 -14 -98 -54 -126l2 -2c27 14 58 10 90 3s65 -19 93 -19c39 0 60 42 73 65l79 -142c-47 -52 -108 -81 -174 -81c-48 0 -84 12 -120 23
c-35 8 -69 16 -112 16c-40 0 -72 -16 -105 -39l-79 112c56 38 110 79 110 153c0 14 -2 27 -6 37h-117v127h71c-17 23 -30 57 -30 95c0 103 76 224 266 224c164 0 259 -84 267 -247z" />
    <glyph glyph-name="fraction" unicode="&#x2044;" horiz-adv-x="167" 
d="M-165 -26l388 748h110l-388 -748h-110z" />
    <glyph glyph-name="fraction" unicode="&#x2215;" horiz-adv-x="167" 
d="M-165 -26l388 748h110l-388 -748h-110z" />
    <glyph glyph-name="yen" unicode="&#xa5;" 
d="M235 0v107h-161v122h161v43l-21 43h-140v122h73l-150 277h225l112 -277l112 277h225l-150 -277h73v-122h-140l-21 -43v-43h161v-122h-161v-107h-198z" />
    <glyph glyph-name="florin" unicode="&#x192;" 
d="M3 -176l39 142c8 -2 15 -3 22 -3c56 0 70 28 84 79l64 237h-95l34 122h95l32 119c35 129 96 211 235 211c37 0 74 -2 112 -6l-38 -141c-14 2 -27 3 -41 3c-34 0 -54 -16 -63 -47l-34 -139h95l-34 -122h-94l-73 -268c-41 -150 -107 -192 -262 -192c-26 0 -52 3 -78 5z" />
    <glyph glyph-name="section" unicode="&#xa7;" horiz-adv-x="667" 
d="M201 326c0 -44 109 -72 166 -96c11 -3 54 -21 63 -22c18 1 36 14 36 33c0 30 -14 34 -39 47c-53 24 -105 43 -158 64c-10 4 -23 10 -34 11c-16 -1 -34 -18 -34 -37zM583 530h-172c-4 38 -27 57 -65 57c-26 0 -53 -14 -53 -42c0 -39 97 -66 144 -84
c66 -25 199 -62 199 -183c0 -110 -69 -143 -106 -151c33 -26 52 -65 52 -107c0 -140 -125 -200 -249 -200c-137 0 -252 60 -249 212h170c6 -49 35 -68 77 -68c25 0 61 14 61 44c0 38 -27 51 -58 63c-49 19 -98 39 -146 59c-74 32 -157 73 -157 167c0 81 38 127 112 156
c-26 25 -40 60 -40 95c0 127 123 183 234 183c132 0 240 -63 246 -201z" />
    <glyph glyph-name="currency" unicode="&#xa4;" 
d="M528 79l-59 60c-31 -28 -79 -42 -133 -42c-56 0 -105 14 -136 40l-60 -58l-75 75l60 58c-19 26 -40 82 -40 136c-1 56 21 110 40 135l-60 57l78 76l57 -56c24 20 80 39 136 39c54 0 108 -19 133 -39l58 56l76 -75l-58 -58c21 -25 42 -79 42 -135c0 -53 -19 -110 -42 -136
l58 -58zM336 455c-50 0 -107 -36 -107 -107s57 -107 107 -107s107 36 107 107s-57 107 -107 107z" />
    <glyph glyph-name="quotesingle" unicode="'" horiz-adv-x="296" 
d="M72 335v379h153v-379h-153z" />
    <glyph glyph-name="quotedblleft" unicode="&#x201c;" horiz-adv-x="519" 
d="M290 335v164c0 106 24 192 184 215v-87c-59 -7 -81 -42 -82 -94h82v-198h-184zM46 335v164c0 106 24 192 184 215v-87c-59 -7 -81 -42 -82 -94h82v-198h-184z" />
    <glyph glyph-name="guillemotleft" unicode="&#xab;" horiz-adv-x="444" 
d="M205 48l-163 129v177l163 129v-154l-78 -64l78 -60v-157zM402 48l-163 129v177l163 129v-154l-78 -64l78 -60v-157z" />
    <glyph glyph-name="guilsinglleft" unicode="&#x2039;" horiz-adv-x="241" 
d="M202 48l-163 129v177l163 129v-157l-77 -61l77 -60v-157z" />
    <glyph glyph-name="guilsinglright" unicode="&#x203a;" horiz-adv-x="241" 
d="M39 483l163 -129v-177l-163 -129v157l77 60l-77 61v157z" />
    <glyph glyph-name="fi" unicode="&#xfb01;" horiz-adv-x="704" 
d="M447 0v519h198v-519h-198zM645 714v-139h-198v139h198zM87 0v397h-81v122h81c-2 51 3 108 41 146c43 43 93 49 173 49c30 0 59 -3 89 -4v-136c-16 2 -32 7 -48 7c-48 0 -64 -14 -61 -62h104v-122h-100v-397h-198z" />
    <glyph glyph-name="fl" unicode="&#xfb02;" horiz-adv-x="704" 
d="M447 0v714h198v-714h-198zM87 0v397h-81v122h81c-2 51 3 108 41 146c43 43 93 49 173 49c30 0 59 -3 89 -4v-136c-16 5 -32 7 -48 7c-48 0 -64 -14 -61 -62h104v-122h-100v-397h-198z" />
    <glyph glyph-name="endash" unicode="&#x2013;" horiz-adv-x="500" 
d="M0 188v158h500v-158h-500z" />
    <glyph glyph-name="dagger" unicode="&#x2020;" horiz-adv-x="667" 
d="M235 -174v545h-175v158h175v185h198v-185h175v-158h-175v-545h-198z" />
    <glyph glyph-name="daggerdbl" unicode="&#x2021;" horiz-adv-x="667" 
d="M235 -174v187h-175v158h175v200h-175v158h175v185h198v-185h175v-158h-175v-200h175v-158h-175v-187h-198z" />
    <glyph glyph-name="periodcentered" unicode="&#xb7;" horiz-adv-x="334" 
d="M47 237c0 66 54 120 120 120s120 -54 120 -120s-54 -120 -120 -120s-120 54 -120 120z" />
    <glyph glyph-name="periodcentered" unicode="&#x2219;" horiz-adv-x="334" 
d="M47 237c0 66 54 120 120 120s120 -54 120 -120s-54 -120 -120 -120s-120 54 -120 120z" />
    <glyph glyph-name="paragraph" unicode="&#xb6;" horiz-adv-x="620" 
d="M241 -174v539c-145 0 -223 64 -223 171c0 144 107 178 246 178h314v-888h-136v785h-65v-785h-136z" />
    <glyph glyph-name="bullet" unicode="&#x2022;" horiz-adv-x="500" 
d="M72 357c0 99 79 178 178 178s179 -79 179 -178s-80 -179 -179 -179s-178 80 -178 179z" />
    <glyph glyph-name="quotesinglbase" unicode="&#x201a;" horiz-adv-x="296" 
d="M240 198v-164c0 -106 -24 -192 -184 -215v87c59 7 81 42 82 94h-82v198h184z" />
    <glyph glyph-name="quotedblbase" unicode="&#x201e;" horiz-adv-x="519" 
d="M474 198v-164c0 -106 -24 -192 -184 -215v87c59 7 81 42 82 94h-82v198h184zM230 198v-164c0 -106 -24 -192 -184 -215v87c59 7 81 42 82 94h-82v198h184z" />
    <glyph glyph-name="quotedblright" unicode="&#x201d;" horiz-adv-x="519" 
d="M474 714v-164c0 -106 -24 -192 -184 -215v87c59 7 81 42 82 94h-82v198h184zM230 714v-164c0 -106 -24 -192 -184 -215v87c59 7 81 42 82 94h-82v198h184z" />
    <glyph glyph-name="guillemotright" unicode="&#xbb;" horiz-adv-x="444" 
d="M42 483l163 -129v-177l-163 -129v157l78 60l-78 61v157zM239 483l163 -129v-177l-163 -129v157l78 60l-78 61v157z" />
    <glyph glyph-name="ellipsis" unicode="&#x2026;" horiz-adv-x="1000" 
d="M271 0h-208v198h208v-198zM937 0h-208v198h208v-198zM604 0h-208v198h208v-198z" />
    <glyph glyph-name="perthousand" unicode="&#x2030;" horiz-adv-x="1167" 
d="M149 -26l410 748h110l-410 -748h-110zM466 166c0 97 44 173 145 173s145 -76 145 -173c0 -98 -44 -174 -145 -174s-145 76 -145 174zM570 165c0 -33 -1 -86 41 -86s41 53 41 86c0 32 1 87 -41 87s-41 -55 -41 -87zM915 165c0 -33 -1 -86 41 -86s41 53 41 86
c0 32 1 87 -41 87s-41 -55 -41 -87zM811 166c0 97 44 173 145 173s145 -76 145 -173c0 -98 -44 -174 -145 -174s-145 76 -145 174zM65 531c0 97 44 173 145 173s145 -76 145 -173c0 -98 -44 -174 -145 -174s-145 76 -145 174zM169 530c0 -33 -1 -86 41 -86s41 53 41 86
c0 32 1 87 -41 87s-41 -55 -41 -87z" />
    <glyph glyph-name="questiondown" unicode="&#xbf;" horiz-adv-x="574" 
d="M351 74h208c-7 -167 -117 -255 -277 -255c-127 0 -267 64 -267 209c0 94 48 124 96 148c48 25 96 44 96 114h186c0 -122 -41 -160 -82 -181c-41 -23 -82 -25 -82 -74c0 -28 23 -46 52 -46c59 0 70 35 70 85zM404 548v-198h-208v198h208z" />
    <glyph glyph-name="grave" unicode="`" horiz-adv-x="278" 
d="M105 569l-171 149h208l100 -149h-137z" />
    <glyph glyph-name="acute" unicode="&#xb4;" horiz-adv-x="278" 
d="M344 718l-172 -149h-136l99 149h209z" />
    <glyph glyph-name="circumflex" unicode="&#x2c6;" horiz-adv-x="278" 
d="M-64 569l121 149h164l122 -149h-147l-57 76l-56 -76h-147z" />
    <glyph glyph-name="tilde" unicode="&#x2dc;" horiz-adv-x="278" 
d="M-57 569c-1 59 26 142 112 142c33 0 66 -10 93 -20s48 -20 59 -20c21 0 38 9 45 43h82c-3 -76 -42 -139 -116 -139c-33 0 -63 9 -89 19c-25 9 -47 18 -66 18c-22 0 -37 -24 -41 -43h-79z" />
    <glyph glyph-name="macron" unicode="&#xaf;" horiz-adv-x="278" 
d="M-30 598v91h339v-91h-339z" />
    <glyph glyph-name="macron" unicode="&#x2c9;" horiz-adv-x="278" 
d="M-30 598v91h339v-91h-339z" />
    <glyph glyph-name="breve" unicode="&#x2d8;" horiz-adv-x="278" 
d="M243 722h78c-5 -103 -88 -153 -183 -153c-107 0 -177 50 -180 153h78c6 -47 65 -66 106 -66c43 0 92 19 101 66z" />
    <glyph glyph-name="dotaccent" unicode="&#x2d9;" horiz-adv-x="278" 
d="M54 574v130h170v-130h-170z" />
    <glyph glyph-name="dieresis" unicode="&#xa8;" horiz-adv-x="278" 
d="M168 574v130h170v-130h-170zM-59 574v130h170v-130h-170z" />
    <glyph glyph-name="ring" unicode="&#x2da;" horiz-adv-x="278" 
d="M26 666c0 62 52 112 113 112s112 -51 112 -112s-50 -113 -112 -113s-113 51 -113 113zM86 666c0 -28 25 -53 53 -53s52 26 52 53s-25 52 -52 52s-53 -24 -53 -52z" />
    <glyph glyph-name="cedilla" unicode="&#xb8;" horiz-adv-x="278" 
d="M1 -204l21 46c29 -8 56 -20 86 -20c26 0 52 10 52 37c0 21 -20 35 -43 35c-13 0 -27 -4 -39 -10l-26 24l56 92h58l-40 -62l2 -2c9 4 20 5 42 5c49 0 105 -25 100 -89c-4 -52 -56 -84 -131 -84c-56 0 -92 12 -138 28z" />
    <glyph glyph-name="hungarumlaut" unicode="&#x2dd;" horiz-adv-x="278" 
d="M-70 569l99 149h169l-158 -149h-110zM155 569l99 149h169l-158 -149h-110z" />
    <glyph glyph-name="ogonek" unicode="&#x2db;" horiz-adv-x="278" 
d="M164 -146h58c-16 -58 -65 -74 -113 -74c-61 0 -121 20 -121 76c0 23 11 44 30 65c35 39 65 62 88 79h73c-67 -58 -86 -93 -86 -127c0 -27 15 -39 36 -39c20 0 30 6 35 20z" />
    <glyph glyph-name="caron" unicode="&#x2c7;" horiz-adv-x="278" 
d="M343 718l-122 -149h-164l-121 149h147l56 -76l57 76h147z" />
    <glyph glyph-name="emdash" unicode="&#x2014;" horiz-adv-x="1000" 
d="M130 188v158h740v-158h-740z" />
    <glyph glyph-name="AE" unicode="&#xc6;" horiz-adv-x="1056" 
d="M467 249v282h-29l-123 -282h152zM-16 0l325 714h690v-183h-324v-89h302v-170h-302v-89h336v-183h-544v105h-211l-43 -105h-229z" />
    <glyph glyph-name="ordfeminine" unicode="&#xaa;" horiz-adv-x="367" 
d="M233 492v33c-16 -7 -34 -12 -51 -15c-21 -4 -43 -12 -43 -34c0 -20 16 -31 36 -31c33 0 54 17 58 47zM357 583v-145c0 -27 9 -46 14 -55h-131c-2 10 -5 21 -5 31h-1c-27 -30 -66 -39 -108 -39c-65 0 -117 31 -117 96c0 99 112 94 188 107c18 3 36 7 36 27
c0 23 -22 29 -43 29c-24 0 -47 -12 -47 -33h-120c3 89 93 103 173 103c70 0 161 -21 161 -121z" />
    <glyph glyph-name="Lslash" unicode="&#x141;" horiz-adv-x="630" 
d="M57 0v201l-82 -57v130l82 57v383h220v-232l183 126v-130l-183 -126v-169h316v-183h-536z" />
    <glyph glyph-name="Oslash" unicode="&#xd8;" horiz-adv-x="796" 
d="M271 258l226 249c-31 35 -69 46 -99 46c-56 0 -142 -37 -142 -196c0 -40 6 -73 15 -99zM527 450l-224 -247c29 -32 66 -42 95 -42c56 0 142 37 142 196c0 37 -5 67 -13 93zM714 745l46 -39l-87 -95c55 -64 87 -152 87 -254c0 -218 -145 -374 -362 -374
c-90 0 -168 27 -227 74l-85 -94l-45 42l86 94c-58 66 -91 155 -91 258c0 218 145 374 362 374c92 0 171 -28 232 -78z" />
    <glyph glyph-name="OE" unicode="&#x152;" horiz-adv-x="1130" 
d="M535 0v35c-35 -38 -115 -52 -164 -52c-205 0 -335 172 -335 367c0 202 130 381 344 381c56 0 114 -14 155 -55v38h540v-183h-339v-89h310v-170h-310v-89h349v-183h-550zM534 362c0 193 -122 191 -139 191c-16 0 -139 2 -139 -191c0 -197 117 -201 139 -201
c23 0 139 4 139 201z" />
    <glyph glyph-name="ordmasculine" unicode="&#xba;" horiz-adv-x="378" 
d="M10 541c0 86 58 163 185 163s185 -77 185 -163c0 -88 -58 -166 -185 -166s-185 78 -185 166zM146 541c0 -35 6 -79 49 -79s49 44 49 79c0 33 -6 76 -49 76s-49 -43 -49 -76z" />
    <glyph glyph-name="ae" unicode="&#xe6;" horiz-adv-x="962" 
d="M559 318h176c1 52 -34 87 -88 87c-69 0 -88 -51 -88 -87zM389 195v42c-19 -11 -51 -20 -88 -29c-37 -6 -67 -18 -67 -60c0 -23 26 -44 69 -44c58 0 86 43 86 91zM931 215h-372c3 -64 33 -101 99 -101c31 0 62 20 75 37h186c-28 -101 -144 -164 -258 -164
c-107 0 -149 18 -198 69c-80 -66 -187 -69 -248 -69c-91 0 -183 36 -183 160c0 163 192 157 293 174c36 6 64 17 64 46c0 38 -37 48 -69 48c-41 0 -74 -14 -79 -53h-186c4 143 146 170 259 170c59 0 131 -11 182 -56c41 40 100 56 166 56c198 0 277 -152 269 -317z" />
    <glyph glyph-name="dotlessi" unicode="&#x131;" horiz-adv-x="315" 
d="M256 0h-198v519h198v-519z" />
    <glyph glyph-name="lslash" unicode="&#x142;" horiz-adv-x="315" 
d="M58 0v265l-60 -46v102l60 46v347h198v-194l60 46v-102l-60 -46v-418h-198z" />
    <glyph glyph-name="oslash" unicode="&#xf8;" horiz-adv-x="630" 
d="M395 314l-137 -159c12 -15 30 -24 57 -24c75 0 85 74 85 129c0 17 -1 35 -5 54zM236 202l138 160c-12 16 -31 26 -59 26c-75 0 -85 -73 -85 -128c0 -19 1 -40 6 -58zM534 546l35 -31l-48 -56c52 -51 77 -122 77 -199c0 -144 -88 -273 -283 -273c-68 0 -123 16 -166 42
l-55 -64l-36 33l53 61c-54 51 -79 124 -79 201c0 144 88 272 283 272c69 0 125 -16 169 -44z" />
    <glyph glyph-name="oe" unicode="&#x153;" horiz-adv-x="981" 
d="M576 318h187c-4 57 -34 87 -91 87c-50 0 -95 -28 -96 -87zM406 259c0 55 -10 129 -87 129s-89 -74 -89 -129s12 -128 89 -128s87 73 87 128zM766 151h191c-43 -114 -148 -164 -276 -164c-71 0 -137 16 -190 66c-48 -50 -120 -66 -187 -66c-163 0 -272 97 -272 272
c0 219 180 273 286 273c65 0 136 -15 183 -63c54 46 109 63 179 63c192 0 286 -137 280 -317h-384c0 -63 41 -101 105 -101c37 0 61 11 85 37z" />
    <glyph glyph-name="germandbls" unicode="&#xdf;" horiz-adv-x="648" 
d="M58 0v466c0 162 94 265 264 265c161 0 257 -84 257 -193c0 -99 -65 -131 -84 -143v-2c9 -1 124 -25 124 -176c0 -134 -97 -223 -229 -223c-41 0 -65 2 -94 7v152c14 -4 27 -6 41 -6c52 0 84 41 84 90c0 79 -58 94 -125 94v110c51 0 99 5 99 67c0 43 -25 65 -68 65
c-55 0 -71 -40 -71 -90v-483h-198z" />
    <glyph glyph-name="onesuperior" unicode="&#xb9;" horiz-adv-x="400" 
d="M157 282v234h-106v87c66 1 131 24 135 93h107v-414h-136z" />
    <glyph glyph-name="logicalnot" unicode="&#xac;" horiz-adv-x="600" 
d="M553 450v-342h-153v189h-352v153h505z" />
    <glyph glyph-name="mu" unicode="&#xb5;" horiz-adv-x="648" 
d="M594 519v-519h-191v66h-2c-37 -51 -85 -77 -149 -79v-155h-198v687h198v-272c0 -60 7 -102 65 -102c34 0 79 17 79 100v274h198z" />
    <glyph glyph-name="mu" unicode="&#x3bc;" horiz-adv-x="648" 
d="M594 519v-519h-191v66h-2c-37 -51 -85 -77 -149 -79v-155h-198v687h198v-272c0 -60 7 -102 65 -102c34 0 79 17 79 100v274h198z" />
    <glyph glyph-name="trademark" unicode="&#x2122;" horiz-adv-x="1000" 
d="M376 714v-94h-104v-318h-136v318h-104v94h344zM968 714v-412h-124v230h-2l-75 -230h-104l-75 230h-2v-230h-124v412h172l80 -239h2l80 239h172z" />
    <glyph glyph-name="Eth" unicode="&#xd0;" horiz-adv-x="778" 
d="M57 0v310h-56v122h56v282h361c238 0 322 -176 322 -357c0 -218 -116 -357 -365 -357h-318zM277 531v-99h136v-122h-136v-127h86c137 0 157 111 157 178c0 45 -14 170 -173 170h-70z" />
    <glyph glyph-name="onehalf" unicode="&#xbd;" horiz-adv-x="1000" 
d="M205 -26l388 748h110l-389 -748h-109zM932 0h-392c-7 115 104 164 193 216c24 13 58 30 58 59c0 31 -21 53 -51 53c-52 0 -70 -44 -69 -87h-122c-3 58 14 103 48 134c33 31 83 47 144 47c117 0 186 -39 186 -131c0 -137 -200 -164 -200 -188h205v-103zM174 282v234h-106
v87c61 0 131 21 135 93h107v-414h-136z" />
    <glyph glyph-name="plusminus" unicode="&#xb1;" horiz-adv-x="600" 
d="M48 271v153h176v81h153v-81h176v-153h-176v-81h-153v81h-176zM48 0v153h505v-153h-505z" />
    <glyph glyph-name="Thorn" unicode="&#xde;" horiz-adv-x="704" 
d="M277 447v-145h85c57 0 117 4 117 76c0 65 -50 69 -104 69h-98zM57 0v714h220v-84h148c194 0 262 -142 262 -244c0 -173 -116 -254 -280 -254h-130v-132h-220z" />
    <glyph glyph-name="onequarter" unicode="&#xbc;" horiz-adv-x="1000" 
d="M205 -26l388 748h110l-388 -748h-110zM174 282v234h-106v87c66 1 131 24 135 93h107v-414h-136zM700 0v83h-200v113l206 218h130v-228h61v-103h-61v-83h-136zM700 186v116l-110 -116h110z" />
    <glyph glyph-name="divide" unicode="&#xf7;" horiz-adv-x="600" 
d="M48 176v153h505v-153h-505zM301 358c-56 0 -101 45 -101 101s45 101 101 102c56 -1 101 -46 101 -102s-45 -101 -101 -101zM301 147c56 0 101 -45 101 -101s-45 -101 -101 -102c-56 1 -101 46 -101 102s45 101 101 101z" />
    <glyph glyph-name="brokenbar" unicode="&#xa6;" horiz-adv-x="222" 
d="M35 -89v250h153v-250h-153zM35 411v250h153v-250h-153z" />
    <glyph glyph-name="degree" unicode="&#xb0;" horiz-adv-x="400" 
d="M51 555c0 86 63 149 149 149s149 -63 149 -149s-63 -149 -149 -149s-149 63 -149 149zM129 555c0 -41 32 -71 71 -71s71 30 71 71s-32 71 -71 71s-71 -30 -71 -71z" />
    <glyph glyph-name="thorn" unicode="&#xfe;" horiz-adv-x="648" 
d="M245 259c0 -61 16 -128 87 -128s87 67 87 128c0 62 -16 129 -87 129s-87 -67 -87 -129zM54 -168v882h198v-252h2c30 44 83 70 142 70c174 0 221 -148 221 -270c0 -127 -47 -275 -221 -275c-59 0 -112 26 -142 70h-2v-225h-198z" />
    <glyph glyph-name="threequarters" unicode="&#xbe;" horiz-adv-x="1000" 
d="M773 0v83h-200v113l206 218h130v-228h61v-103h-61v-83h-136zM663 186h110v116zM281 -26l388 748h110l-389 -748h-109zM166 559h-124c1 49 22 85 56 109c33 24 79 36 128 36c111 0 182 -48 182 -118c0 -65 -45 -77 -58 -82v-2c42 -15 70 -41 70 -106
c0 -61 -53 -122 -196 -122c-145 0 -195 69 -195 164h124c0 -20 5 -36 14 -47c12 -17 30 -23 55 -23c30 0 62 15 62 49c0 36 -36 41 -62 41c-17 0 -26 0 -36 -1v80c10 -1 20 -1 32 -1c29 0 66 9 66 33c0 26 -24 41 -58 41c-35 0 -60 -22 -60 -51z" />
    <glyph glyph-name="twosuperior" unicode="&#xb2;" horiz-adv-x="400" 
d="M135 523h-122c-3 58 14 103 48 134c33 31 83 47 144 47c117 0 186 -39 186 -131c0 -137 -200 -164 -200 -188h205v-103h-392c-7 115 104 164 193 216c24 13 58 30 58 59c0 31 -21 53 -51 53c-52 0 -70 -44 -69 -87z" />
    <glyph glyph-name="registered" unicode="&#xae;" horiz-adv-x="800" 
d="M26 357c0 207 167 374 374 374s374 -167 374 -374s-167 -374 -374 -374s-374 167 -374 374zM150 357c0 -141 109 -257 250 -257s250 116 250 257s-109 257 -250 257s-250 -116 -250 -257zM252 167v379h147c107 0 167 -26 167 -119c0 -73 -44 -100 -100 -103l85 -157h-97
l-76 151h-36v-151h-90zM342 476v-88h75c34 -1 53 12 53 49s-44 39 -73 39h-55z" />
    <glyph glyph-name="minus" unicode="&#x2212;" horiz-adv-x="600" 
d="M48 176v153h505v-153h-505z" />
    <glyph glyph-name="eth" unicode="&#xf0;" horiz-adv-x="630" 
d="M314 131c57 0 86 43 86 121c0 77 -29 116 -86 116s-84 -39 -84 -116c0 -78 27 -121 84 -121zM450 779l76 -77l-99 -53c102 -94 171 -204 171 -351c0 -139 -57 -311 -284 -311c-182 0 -282 99 -282 261c0 194 155 247 237 247c23 0 57 1 95 -15l2 2c-23 32 -60 72 -88 89
l-100 -53l-72 78l81 44c-8 10 -33 30 -57 44l142 82c26 -18 52 -38 70 -46z" />
    <glyph glyph-name="multiply" unicode="&#xd7;" horiz-adv-x="600" 
d="M159 4l-108 108l141 141l-141 141l108 108l141 -141l141 142l108 -108l-141 -142l141 -141l-109 -108l-140 141z" />
    <glyph glyph-name="threesuperior" unicode="&#xb3;" horiz-adv-x="400" 
d="M147 559h-124c1 49 22 85 56 109c33 24 79 36 128 36c111 0 182 -48 182 -118c0 -65 -45 -77 -58 -82v-2c42 -15 70 -41 70 -106c0 -61 -53 -122 -196 -122c-145 0 -195 69 -195 164h124c0 -20 5 -36 14 -47c12 -17 30 -23 55 -23c30 0 62 15 62 49c0 36 -36 41 -62 41
c-17 0 -26 0 -36 -1v80c10 -1 20 -1 32 -1c29 0 66 9 66 33c0 26 -24 41 -58 41c-35 0 -60 -22 -60 -51z" />
    <glyph glyph-name="copyright" unicode="&#xa9;" horiz-adv-x="800" 
d="M483 309h100c-16 -109 -91 -161 -178 -161c-121 0 -201 91 -201 208c0 120 76 209 199 209c90 0 159 -51 176 -155h-96c-8 35 -35 52 -77 52c-58 0 -92 -41 -92 -104s39 -107 91 -107c41 0 73 14 78 58zM26 357c0 207 167 374 374 374s374 -167 374 -374
s-167 -374 -374 -374s-374 167 -374 374zM150 357c0 -141 109 -257 250 -257s250 116 250 257s-109 257 -250 257s-250 -116 -250 -257z" />
    <glyph glyph-name="Aacute" unicode="&#xc1;" horiz-adv-x="722" 
d="M293 255h135l-64 220h-2zM-8 0l263 714h215l260 -714h-228l-30 102h-227l-32 -102h-221zM566 913l-172 -149h-136l99 149h209z" />
    <glyph glyph-name="Acircumflex" unicode="&#xc2;" horiz-adv-x="722" 
d="M293 255h135l-64 220h-2zM-8 0l263 714h215l260 -714h-228l-30 102h-227l-32 -102h-221zM158 764l121 149h164l122 -149h-147l-57 76l-56 -76h-147z" />
    <glyph glyph-name="Adieresis" unicode="&#xc4;" horiz-adv-x="722" 
d="M293 255h135l-64 220h-2zM-8 0l263 714h215l260 -714h-228l-30 102h-227l-32 -102h-221zM390 769v130h170v-130h-170zM163 769v130h170v-130h-170z" />
    <glyph glyph-name="Agrave" unicode="&#xc0;" horiz-adv-x="722" 
d="M293 255h135l-64 220h-2zM-8 0l263 714h215l260 -714h-228l-30 102h-227l-32 -102h-221zM327 764l-171 149h208l100 -149h-137z" />
    <glyph glyph-name="Aring" unicode="&#xc5;" horiz-adv-x="722" 
d="M293 255h135l-64 220h-2zM-8 0l263 714h215l260 -714h-228l-30 102h-227l-32 -102h-221zM248 841c0 62 52 112 113 112s112 -51 112 -112s-50 -113 -112 -113s-113 51 -113 113zM308 841c0 -28 25 -53 53 -53s52 26 52 53s-25 52 -52 52s-53 -24 -53 -52z" />
    <glyph glyph-name="Atilde" unicode="&#xc3;" horiz-adv-x="722" 
d="M293 255h135l-64 220h-2zM-8 0l263 714h215l260 -714h-228l-30 102h-227l-32 -102h-221zM165 764c-1 59 26 142 112 142c33 0 66 -10 93 -20s48 -20 59 -20c21 0 38 9 45 43h82c-3 -76 -42 -139 -116 -139c-33 0 -63 9 -89 19c-25 9 -47 18 -66 18c-22 0 -37 -24 -41 -43
h-79z" />
    <glyph glyph-name="Ccedilla" unicode="&#xc7;" horiz-adv-x="759" 
d="M508 280h216c0 -144 -117 -297 -326 -297h-3l-29 -45l2 -2c9 4 20 5 42 5c49 0 105 -25 100 -89c-4 -52 -56 -84 -131 -84c-56 0 -92 12 -138 28l21 46c29 -8 56 -20 86 -20c26 0 52 10 52 37c0 21 -20 35 -43 35c-13 0 -27 -4 -39 -10l-26 24l48 79
c-195 25 -304 177 -304 370c0 225 142 374 362 374c196 -1 304 -104 323 -283h-214c-4 26 -24 105 -115 105c-103 0 -136 -100 -136 -196s33 -196 136 -196c74 0 103 52 116 119z" />
    <glyph glyph-name="Eacute" unicode="&#xc9;" horiz-adv-x="704" 
d="M57 0v714h591v-183h-371v-89h337v-170h-337v-89h382v-183h-602zM557 913l-172 -149h-136l99 149h209z" />
    <glyph glyph-name="Ecircumflex" unicode="&#xca;" horiz-adv-x="704" 
d="M57 0v714h591v-183h-371v-89h337v-170h-337v-89h382v-183h-602zM149 764l121 149h164l122 -149h-147l-57 76l-56 -76h-147z" />
    <glyph glyph-name="Edieresis" unicode="&#xcb;" horiz-adv-x="704" 
d="M57 0v714h591v-183h-371v-89h337v-170h-337v-89h382v-183h-602zM381 769v130h170v-130h-170zM154 769v130h170v-130h-170z" />
    <glyph glyph-name="Egrave" unicode="&#xc8;" horiz-adv-x="704" 
d="M57 0v714h591v-183h-371v-89h337v-170h-337v-89h382v-183h-602zM318 764l-171 149h208l100 -149h-137z" />
    <glyph glyph-name="Iacute" unicode="&#xcd;" horiz-adv-x="333" 
d="M57 0v714h220v-714h-220zM372 913l-172 -149h-136l99 149h209z" />
    <glyph glyph-name="Icircumflex" unicode="&#xce;" horiz-adv-x="333" 
d="M57 0v714h220v-714h-220zM-36 764l121 149h164l122 -149h-147l-57 76l-56 -76h-147z" />
    <glyph glyph-name="Idieresis" unicode="&#xcf;" horiz-adv-x="333" 
d="M57 0v714h220v-714h-220zM196 769v130h170v-130h-170zM-31 769v130h170v-130h-170z" />
    <glyph glyph-name="Igrave" unicode="&#xcc;" horiz-adv-x="333" 
d="M57 0v714h220v-714h-220zM133 764l-171 149h208l100 -149h-137z" />
    <glyph glyph-name="Ntilde" unicode="&#xd1;" horiz-adv-x="759" 
d="M58 0v714h225l208 -382h2v382h208v-714h-214l-219 390h-2v-390h-208zM184 764c-1 59 26 142 112 142c33 0 66 -10 93 -20s48 -20 59 -20c21 0 38 9 45 43h82c-3 -76 -42 -139 -116 -139c-33 0 -63 9 -89 19c-25 9 -47 18 -66 18c-22 0 -37 -24 -41 -43h-79z" />
    <glyph glyph-name="Oacute" unicode="&#xd3;" horiz-adv-x="796" 
d="M36 357c0 218 145 374 362 374s362 -156 362 -374s-145 -374 -362 -374s-362 156 -362 374zM256 357c0 -159 86 -196 142 -196s142 37 142 196s-86 196 -142 196s-142 -37 -142 -196zM603 913l-172 -149h-136l99 149h209z" />
    <glyph glyph-name="Ocircumflex" unicode="&#xd4;" horiz-adv-x="796" 
d="M36 357c0 218 145 374 362 374s362 -156 362 -374s-145 -374 -362 -374s-362 156 -362 374zM256 357c0 -159 86 -196 142 -196s142 37 142 196s-86 196 -142 196s-142 -37 -142 -196zM195 764l121 149h164l122 -149h-147l-57 76l-56 -76h-147z" />
    <glyph glyph-name="Odieresis" unicode="&#xd6;" horiz-adv-x="796" 
d="M36 357c0 218 145 374 362 374s362 -156 362 -374s-145 -374 -362 -374s-362 156 -362 374zM256 357c0 -159 86 -196 142 -196s142 37 142 196s-86 196 -142 196s-142 -37 -142 -196zM427 769v130h170v-130h-170zM200 769v130h170v-130h-170z" />
    <glyph glyph-name="Ograve" unicode="&#xd2;" horiz-adv-x="796" 
d="M36 357c0 218 145 374 362 374s362 -156 362 -374s-145 -374 -362 -374s-362 156 -362 374zM256 357c0 -159 86 -196 142 -196s142 37 142 196s-86 196 -142 196s-142 -37 -142 -196zM364 764l-171 149h208l100 -149h-137z" />
    <glyph glyph-name="Otilde" unicode="&#xd5;" horiz-adv-x="796" 
d="M36 357c0 218 145 374 362 374s362 -156 362 -374s-145 -374 -362 -374s-362 156 -362 374zM256 357c0 -159 86 -196 142 -196s142 37 142 196s-86 196 -142 196s-142 -37 -142 -196zM202 764c-1 59 26 142 112 142c33 0 66 -10 93 -20s48 -20 59 -20c21 0 38 9 45 43h82
c-3 -76 -42 -139 -116 -139c-33 0 -63 9 -89 19c-25 9 -47 18 -66 18c-22 0 -37 -24 -41 -43h-79z" />
    <glyph glyph-name="Scaron" unicode="&#x160;" horiz-adv-x="667" 
d="M12 240h220c0 -18 3 -34 8 -47c16 -43 64 -52 105 -52c36 0 91 12 91 65c0 37 -31 47 -154 82c-113 32 -242 63 -242 207c0 165 141 236 288 236c155 0 292 -59 298 -233h-208c4 27 -8 45 -26 57c-18 13 -43 18 -65 18c-30 0 -79 -8 -79 -48c4 -51 106 -62 207 -90
s201 -75 201 -206c0 -186 -171 -246 -330 -246c-81 0 -312 29 -314 257zM538 913l-122 -149h-164l-121 149h147l56 -76l57 76h147z" />
    <glyph glyph-name="Uacute" unicode="&#xda;" horiz-adv-x="759" 
d="M705 714v-438c0 -198 -107 -293 -325 -293s-326 95 -326 293v438h220v-389c0 -73 0 -164 107 -164c104 0 104 91 104 164v389h220zM585 913l-172 -149h-136l99 149h209z" />
    <glyph glyph-name="Ucircumflex" unicode="&#xdb;" horiz-adv-x="759" 
d="M705 714v-438c0 -198 -107 -293 -325 -293s-326 95 -326 293v438h220v-389c0 -73 0 -164 107 -164c104 0 104 91 104 164v389h220zM177 764l121 149h164l122 -149h-147l-57 76l-56 -76h-147z" />
    <glyph glyph-name="Udieresis" unicode="&#xdc;" horiz-adv-x="759" 
d="M705 714v-438c0 -198 -107 -293 -325 -293s-326 95 -326 293v438h220v-389c0 -73 0 -164 107 -164c104 0 104 91 104 164v389h220zM409 769v130h170v-130h-170zM182 769v130h170v-130h-170z" />
    <glyph glyph-name="Ugrave" unicode="&#xd9;" horiz-adv-x="759" 
d="M705 714v-438c0 -198 -107 -293 -325 -293s-326 95 -326 293v438h220v-389c0 -73 0 -164 107 -164c104 0 104 91 104 164v389h220zM346 764l-171 149h208l100 -149h-137z" />
    <glyph glyph-name="Yacute" unicode="&#xdd;" horiz-adv-x="667" 
d="M221 0v263l-251 451h243l119 -263l124 263h241l-256 -451v-263h-220zM539 913l-172 -149h-136l99 149h209z" />
    <glyph glyph-name="Ydieresis" unicode="&#x178;" horiz-adv-x="667" 
d="M221 0v263l-251 451h243l119 -263l124 263h241l-256 -451v-263h-220zM363 769v130h170v-130h-170zM136 769v130h170v-130h-170z" />
    <glyph glyph-name="Zcaron" unicode="&#x17d;" horiz-adv-x="685" 
d="M24 0v172l332 359h-313v183h603v-160l-335 -371h351v-183h-638zM547 913l-122 -149h-164l-121 149h147l56 -76l57 76h147z" />
    <glyph glyph-name="aacute" unicode="&#xe1;" horiz-adv-x="611" 
d="M370 185v48c-24 -12 -51 -19 -78 -25c-44 -10 -67 -21 -67 -56c0 -24 26 -48 62 -48c45 0 80 27 83 81zM560 329v-213c0 -39 2 -83 24 -116h-202c-5 14 -8 35 -7 49h-2c-42 -48 -103 -62 -167 -62c-100 0 -183 48 -183 157c0 164 192 158 293 177c27 5 54 13 54 46
c0 35 -33 48 -65 48c-61 0 -73 -31 -74 -53h-184c6 146 144 170 267 170c248 0 246 -103 246 -203zM511 718l-172 -149h-136l99 149h209z" />
    <glyph glyph-name="acircumflex" unicode="&#xe2;" horiz-adv-x="611" 
d="M370 185v48c-24 -12 -51 -19 -78 -25c-44 -10 -67 -21 -67 -56c0 -24 26 -48 62 -48c45 0 80 27 83 81zM560 329v-213c0 -39 2 -83 24 -116h-202c-5 14 -8 35 -7 49h-2c-42 -48 -103 -62 -167 -62c-100 0 -183 48 -183 157c0 164 192 158 293 177c27 5 54 13 54 46
c0 35 -33 48 -65 48c-61 0 -73 -31 -74 -53h-184c6 146 144 170 267 170c248 0 246 -103 246 -203zM103 569l121 149h164l122 -149h-147l-57 76l-56 -76h-147z" />
    <glyph glyph-name="adieresis" unicode="&#xe4;" horiz-adv-x="611" 
d="M370 185v48c-24 -12 -51 -19 -78 -25c-44 -10 -67 -21 -67 -56c0 -24 26 -48 62 -48c45 0 80 27 83 81zM560 329v-213c0 -39 2 -83 24 -116h-202c-5 14 -8 35 -7 49h-2c-42 -48 -103 -62 -167 -62c-100 0 -183 48 -183 157c0 164 192 158 293 177c27 5 54 13 54 46
c0 35 -33 48 -65 48c-61 0 -73 -31 -74 -53h-184c6 146 144 170 267 170c248 0 246 -103 246 -203zM335 574v130h170v-130h-170zM108 574v130h170v-130h-170z" />
    <glyph glyph-name="agrave" unicode="&#xe0;" horiz-adv-x="611" 
d="M370 185v48c-24 -12 -51 -19 -78 -25c-44 -10 -67 -21 -67 -56c0 -24 26 -48 62 -48c45 0 80 27 83 81zM560 329v-213c0 -39 2 -83 24 -116h-202c-5 14 -8 35 -7 49h-2c-42 -48 -103 -62 -167 -62c-100 0 -183 48 -183 157c0 164 192 158 293 177c27 5 54 13 54 46
c0 35 -33 48 -65 48c-61 0 -73 -31 -74 -53h-184c6 146 144 170 267 170c248 0 246 -103 246 -203zM272 569l-171 149h208l100 -149h-137z" />
    <glyph glyph-name="aring" unicode="&#xe5;" horiz-adv-x="611" 
d="M370 185v48c-24 -12 -51 -19 -78 -25c-44 -10 -67 -21 -67 -56c0 -24 26 -48 62 -48c45 0 80 27 83 81zM560 329v-213c0 -39 2 -83 24 -116h-202c-5 14 -8 35 -7 49h-2c-42 -48 -103 -62 -167 -62c-100 0 -183 48 -183 157c0 164 192 158 293 177c27 5 54 13 54 46
c0 35 -33 48 -65 48c-61 0 -73 -31 -74 -53h-184c6 146 144 170 267 170c248 0 246 -103 246 -203zM193 666c0 62 52 112 113 112s112 -51 112 -112s-50 -113 -112 -113s-113 51 -113 113zM253 666c0 -28 25 -53 53 -53s52 26 52 53s-25 52 -52 52s-53 -24 -53 -52z" />
    <glyph glyph-name="atilde" unicode="&#xe3;" horiz-adv-x="611" 
d="M370 185v48c-24 -12 -51 -19 -78 -25c-44 -10 -67 -21 -67 -56c0 -24 26 -48 62 -48c45 0 80 27 83 81zM560 329v-213c0 -39 2 -83 24 -116h-202c-5 14 -8 35 -7 49h-2c-42 -48 -103 -62 -167 -62c-100 0 -183 48 -183 157c0 164 192 158 293 177c27 5 54 13 54 46
c0 35 -33 48 -65 48c-61 0 -73 -31 -74 -53h-184c6 146 144 170 267 170c248 0 246 -103 246 -203zM110 569c-1 59 26 142 112 142c33 0 66 -10 93 -20s48 -20 59 -20c21 0 38 9 45 43h82c-3 -76 -42 -139 -116 -139c-33 0 -63 9 -89 19c-25 9 -47 18 -66 18
c-22 0 -37 -24 -41 -43h-79z" />
    <glyph glyph-name="ccedilla" unicode="&#xe7;" horiz-adv-x="611" 
d="M394 207h189c-18 -137 -124 -215 -259 -219l-32 -50l2 -2c9 4 20 5 42 5c49 0 105 -25 100 -89c-4 -52 -56 -84 -131 -84c-56 0 -92 12 -138 28l21 46c29 -8 56 -20 86 -20c26 0 52 10 52 37c0 21 -20 35 -43 35c-13 0 -27 -4 -39 -10l-26 24l51 83
c-135 18 -237 120 -237 268c0 164 125 273 281 273c136 0 252 -67 264 -210h-188c-2 21 -9 38 -22 49c-12 11 -29 17 -50 17c-76 0 -87 -66 -87 -129s11 -128 87 -128c43 0 73 35 77 76z" />
    <glyph glyph-name="eacute" unicode="&#xe9;" horiz-adv-x="630" 
d="M222 318h189c0 48 -36 87 -87 87c-59 0 -93 -31 -102 -87zM601 215h-380c5 -59 39 -101 101 -101c32 0 67 12 83 37h185c-40 -112 -149 -164 -267 -164c-166 0 -291 98 -291 271c0 151 110 274 274 274c206 0 295 -115 295 -317zM520 718l-172 -149h-136l99 149h209z" />
    <glyph glyph-name="ecircumflex" unicode="&#xea;" horiz-adv-x="630" 
d="M222 318h189c0 48 -36 87 -87 87c-59 0 -93 -31 -102 -87zM601 215h-380c5 -59 39 -101 101 -101c32 0 67 12 83 37h185c-40 -112 -149 -164 -267 -164c-166 0 -291 98 -291 271c0 151 110 274 274 274c206 0 295 -115 295 -317zM112 569l121 149h164l122 -149h-147
l-57 76l-56 -76h-147z" />
    <glyph glyph-name="edieresis" unicode="&#xeb;" horiz-adv-x="630" 
d="M222 318h189c0 48 -36 87 -87 87c-59 0 -93 -31 -102 -87zM601 215h-380c5 -59 39 -101 101 -101c32 0 67 12 83 37h185c-40 -112 -149 -164 -267 -164c-166 0 -291 98 -291 271c0 151 110 274 274 274c206 0 295 -115 295 -317zM344 574v130h170v-130h-170zM117 574v130
h170v-130h-170z" />
    <glyph glyph-name="egrave" unicode="&#xe8;" horiz-adv-x="630" 
d="M222 318h189c0 48 -36 87 -87 87c-59 0 -93 -31 -102 -87zM601 215h-380c5 -59 39 -101 101 -101c32 0 67 12 83 37h185c-40 -112 -149 -164 -267 -164c-166 0 -291 98 -291 271c0 151 110 274 274 274c206 0 295 -115 295 -317zM281 569l-171 149h208l100 -149h-137z
" />
    <glyph glyph-name="iacute" unicode="&#xed;" horiz-adv-x="315" 
d="M256 0h-198v519h198v-519zM363 718l-172 -149h-136l99 149h209z" />
    <glyph glyph-name="icircumflex" unicode="&#xee;" horiz-adv-x="315" 
d="M256 0h-198v519h198v-519zM-45 569l121 149h164l122 -149h-147l-57 76l-56 -76h-147z" />
    <glyph glyph-name="idieresis" unicode="&#xef;" horiz-adv-x="315" 
d="M256 0h-198v519h198v-519zM187 574v130h170v-130h-170zM-40 574v130h170v-130h-170z" />
    <glyph glyph-name="igrave" unicode="&#xec;" horiz-adv-x="315" 
d="M256 0h-198v519h198v-519zM124 569l-171 149h208l100 -149h-137z" />
    <glyph glyph-name="ntilde" unicode="&#xf1;" horiz-adv-x="648" 
d="M54 0v519h191v-66h2c37 52 90 79 169 79c93 0 178 -57 178 -176v-356h-198v272c0 60 -7 102 -65 102c-34 0 -79 -17 -79 -100v-274h-198zM128 569c-1 59 26 142 112 142c33 0 66 -10 93 -20s48 -20 59 -20c21 0 38 9 45 43h82c-3 -76 -42 -139 -116 -139
c-33 0 -63 9 -89 19c-25 9 -47 18 -66 18c-22 0 -37 -24 -41 -43h-79z" />
    <glyph glyph-name="oacute" unicode="&#xf3;" horiz-adv-x="630" 
d="M598 260c0 -144 -88 -273 -283 -273s-283 129 -283 273s88 272 283 272s283 -128 283 -272zM400 260c0 55 -10 128 -85 128s-85 -73 -85 -128s10 -129 85 -129s85 74 85 129zM520 718l-172 -149h-136l99 149h209z" />
    <glyph glyph-name="ocircumflex" unicode="&#xf4;" horiz-adv-x="630" 
d="M598 260c0 -144 -88 -273 -283 -273s-283 129 -283 273s88 272 283 272s283 -128 283 -272zM400 260c0 55 -10 128 -85 128s-85 -73 -85 -128s10 -129 85 -129s85 74 85 129zM112 569l121 149h164l122 -149h-147l-57 76l-56 -76h-147z" />
    <glyph glyph-name="odieresis" unicode="&#xf6;" horiz-adv-x="630" 
d="M598 260c0 -144 -88 -273 -283 -273s-283 129 -283 273s88 272 283 272s283 -128 283 -272zM400 260c0 55 -10 128 -85 128s-85 -73 -85 -128s10 -129 85 -129s85 74 85 129zM344 574v130h170v-130h-170zM117 574v130h170v-130h-170z" />
    <glyph glyph-name="ograve" unicode="&#xf2;" horiz-adv-x="630" 
d="M598 260c0 -144 -88 -273 -283 -273s-283 129 -283 273s88 272 283 272s283 -128 283 -272zM400 260c0 55 -10 128 -85 128s-85 -73 -85 -128s10 -129 85 -129s85 74 85 129zM281 569l-171 149h208l100 -149h-137z" />
    <glyph glyph-name="otilde" unicode="&#xf5;" horiz-adv-x="630" 
d="M598 260c0 -144 -88 -273 -283 -273s-283 129 -283 273s88 272 283 272s283 -128 283 -272zM400 260c0 55 -10 128 -85 128s-85 -73 -85 -128s10 -129 85 -129s85 74 85 129zM119 569c-1 59 26 142 112 142c33 0 66 -10 93 -20s48 -20 59 -20c21 0 38 9 45 43h82
c-3 -76 -42 -139 -116 -139c-33 0 -63 9 -89 19c-25 9 -47 18 -66 18c-22 0 -37 -24 -41 -43h-79z" />
    <glyph glyph-name="scaron" unicode="&#x161;" horiz-adv-x="574" 
d="M534 368h-180c-1 17 -10 30 -23 39c-12 10 -28 15 -44 15c-28 0 -60 -6 -60 -40c0 -15 12 -22 23 -27c33 -14 108 -18 174 -40c66 -21 124 -60 124 -145c0 -144 -138 -183 -264 -183c-122 0 -256 49 -259 183h189c1 -18 9 -33 24 -46c10 -9 29 -15 53 -15
c26 0 67 10 67 40s-17 39 -109 55c-151 26 -212 74 -212 163c0 131 141 165 245 165c112 0 247 -31 252 -164zM491 718l-122 -149h-164l-121 149h147l56 -76l57 76h147z" />
    <glyph glyph-name="uacute" unicode="&#xfa;" horiz-adv-x="648" 
d="M594 519v-519h-191v66h-2c-37 -52 -90 -79 -169 -79c-93 0 -178 57 -178 176v356h198v-272c0 -60 7 -102 65 -102c34 0 79 17 79 100v274h198zM529 718l-172 -149h-136l99 149h209z" />
    <glyph glyph-name="ucircumflex" unicode="&#xfb;" horiz-adv-x="648" 
d="M594 519v-519h-191v66h-2c-37 -52 -90 -79 -169 -79c-93 0 -178 57 -178 176v356h198v-272c0 -60 7 -102 65 -102c34 0 79 17 79 100v274h198zM121 569l121 149h164l122 -149h-147l-57 76l-56 -76h-147z" />
    <glyph glyph-name="udieresis" unicode="&#xfc;" horiz-adv-x="648" 
d="M594 519v-519h-191v66h-2c-37 -52 -90 -79 -169 -79c-93 0 -178 57 -178 176v356h198v-272c0 -60 7 -102 65 -102c34 0 79 17 79 100v274h198zM353 574v130h170v-130h-170zM126 574v130h170v-130h-170z" />
    <glyph glyph-name="ugrave" unicode="&#xf9;" horiz-adv-x="648" 
d="M594 519v-519h-191v66h-2c-37 -52 -90 -79 -169 -79c-93 0 -178 57 -178 176v356h198v-272c0 -60 7 -102 65 -102c34 0 79 17 79 100v274h198zM290 569l-171 149h208l100 -149h-137z" />
    <glyph glyph-name="yacute" unicode="&#xfd;" horiz-adv-x="556" 
d="M571 519l-172 -479c-16 -46 -34 -105 -65 -144c-52 -65 -132 -64 -209 -64h-90v158h46c20 0 46 -2 60 5c12 6 19 16 19 39c0 25 -76 216 -87 246l-88 239h212l83 -298h2l84 298h205zM483 718l-172 -149h-136l99 149h209z" />
    <glyph glyph-name="ydieresis" unicode="&#xff;" horiz-adv-x="556" 
d="M571 519l-172 -479c-16 -46 -34 -105 -65 -144c-52 -65 -132 -64 -209 -64h-90v158h46c20 0 46 -2 60 5c12 6 19 16 19 39c0 25 -76 216 -87 246l-88 239h212l83 -298h2l84 298h205zM307 574v130h170v-130h-170zM80 574v130h170v-130h-170z" />
    <glyph glyph-name="zcaron" unicode="&#x17e;" horiz-adv-x="556" 
d="M17 0v153l243 222h-221v144h475v-152l-237 -223h258v-144h-518zM482 718l-122 -149h-164l-121 149h147l56 -76l57 76h147z" />
    <glyph glyph-name="Euro" unicode="&#x20ac;" 
d="M610 662v-145c-25 25 -78 49 -159 49c-104 0 -152 -45 -168 -109h285l-36 -88h-260c-1 -6 -2 -15 -2 -24c0 -10 1 -22 2 -29h238l-36 -88h-187c17 -61 68 -98 164 -98c71 0 131 23 159 48v-146c-24 -16 -84 -39 -181 -39c-189 0 -291 81 -322 235h-90l36 88h45
c-1 8 -1 16 -1 28c0 10 0 17 1 25h-81l36 88h53c31 139 116 247 323 247c90 0 156 -24 181 -42z" />
    <hkern u1="&#x2019;" u2="t" k="18" />
    <hkern u1="&#x2019;" u2="s" k="74" />
    <hkern u1="&#x2019;" u2="&#x2019;" k="52" />
    <hkern u1="A" u2="y" k="18" />
    <hkern u1="A" u2="w" k="18" />
    <hkern u1="A" u2="v" k="18" />
    <hkern u1="A" u2="Y" k="74" />
    <hkern u1="A" u2="W" k="37" />
    <hkern u1="A" u2="V" k="30" />
    <hkern u1="A" u2="T" k="68" />
    <hkern u1="A" u2="&#x2019;" k="74" />
    <hkern u1="F" u2="A" k="55" />
    <hkern u1="F" u2="&#x2e;" k="129" />
    <hkern u1="F" u2="&#x2c;" k="129" />
    <hkern u1="L" u2="y" k="37" />
    <hkern u1="L" u2="Y" k="111" />
    <hkern u1="L" u2="W" k="55" />
    <hkern u1="L" u2="V" k="92" />
    <hkern u1="L" u2="T" k="129" />
    <hkern u1="L" u2="&#x2019;" k="111" />
    <hkern u1="P" u2="A" k="74" />
    <hkern u1="P" u2="&#x2e;" k="129" />
    <hkern u1="P" u2="&#x2c;" k="129" />
    <hkern u1="R" u2="Y" k="37" />
    <hkern u1="R" u2="W" k="18" />
    <hkern u1="R" u2="V" k="4" />
    <hkern u1="R" u2="T" k="18" />
    <hkern u1="T" u2="y" k="111" />
    <hkern u1="T" u2="w" k="111" />
    <hkern u1="T" u2="u" k="92" />
    <hkern u1="T" u2="s" k="111" />
    <hkern u1="T" u2="r" k="92" />
    <hkern u1="T" u2="o" k="111" />
    <hkern u1="T" u2="e" k="111" />
    <hkern u1="T" u2="c" k="111" />
    <hkern u1="T" u2="a" k="111" />
    <hkern u1="T" u2="A" k="74" />
    <hkern u1="T" u2="&#x3b;" k="87" />
    <hkern u1="T" u2="&#x3a;" k="87" />
    <hkern u1="T" u2="&#x2e;" k="111" />
    <hkern u1="T" u2="&#x2d;" k="129" />
    <hkern u1="T" u2="&#x2c;" k="111" />
    <hkern u1="V" u2="y" k="18" />
    <hkern u1="V" u2="u" k="37" />
    <hkern u1="V" u2="r" k="37" />
    <hkern u1="V" u2="o" k="55" />
    <hkern u1="V" u2="i" k="18" />
    <hkern u1="V" u2="e" k="55" />
    <hkern u1="V" u2="a" k="55" />
    <hkern u1="V" u2="A" k="55" />
    <hkern u1="V" u2="&#x3b;" k="50" />
    <hkern u1="V" u2="&#x3a;" k="50" />
    <hkern u1="V" u2="&#x2e;" k="105" />
    <hkern u1="V" u2="&#x2d;" k="55" />
    <hkern u1="V" u2="&#x2c;" k="129" />
    <hkern u1="W" u2="u" k="18" />
    <hkern u1="W" u2="r" k="18" />
    <hkern u1="W" u2="o" k="37" />
    <hkern u1="W" u2="e" k="37" />
    <hkern u1="W" u2="a" k="37" />
    <hkern u1="W" u2="A" k="55" />
    <hkern u1="W" u2="&#x3b;" k="18" />
    <hkern u1="W" u2="&#x3a;" k="18" />
    <hkern u1="W" u2="&#x2e;" k="74" />
    <hkern u1="W" u2="&#x2c;" k="74" />
    <hkern u1="Y" u2="v" k="55" />
    <hkern u1="Y" u2="u" k="74" />
    <hkern u1="Y" u2="q" k="92" />
    <hkern u1="Y" u2="p" k="74" />
    <hkern u1="Y" u2="o" k="92" />
    <hkern u1="Y" u2="i" k="13" />
    <hkern u1="Y" u2="e" k="92" />
    <hkern u1="Y" u2="a" k="92" />
    <hkern u1="Y" u2="A" k="74" />
    <hkern u1="Y" u2="&#x3b;" k="80" />
    <hkern u1="Y" u2="&#x3a;" k="92" />
    <hkern u1="Y" u2="&#x2e;" k="111" />
    <hkern u1="Y" u2="&#x2d;" k="111" />
    <hkern u1="Y" u2="&#x2c;" k="111" />
    <hkern u1="&#x2018;" u2="&#x2018;" k="52" />
    <hkern u1="f" u2="f" k="18" />
    <hkern u1="f" u2="&#x2019;" k="-18" />
    <hkern u1="r" u2="y" k="-10" />
    <hkern u1="r" u2="w" k="-10" />
    <hkern u1="r" u2="v" k="-10" />
    <hkern u1="r" u2="q" k="18" />
    <hkern u1="r" u2="o" k="18" />
    <hkern u1="r" u2="n" k="-18" />
    <hkern u1="r" u2="e" k="18" />
    <hkern u1="r" u2="d" k="18" />
    <hkern u1="r" u2="c" k="18" />
    <hkern u1="r" u2="&#x2e;" k="92" />
    <hkern u1="r" u2="&#x2d;" k="55" />
    <hkern u1="r" u2="&#x2c;" k="92" />
    <hkern u1="v" u2="&#x2e;" k="60" />
    <hkern u1="v" u2="&#x2c;" k="60" />
    <hkern u1="w" u2="&#x2e;" k="55" />
    <hkern u1="w" u2="&#x2c;" k="55" />
    <hkern u1="y" u2="&#x2e;" k="92" />
    <hkern u1="y" u2="&#x2c;" k="92" />
  </font>
</defs></svg>
